0.000000	-31.5940971  2.6949334  0.2332139  0.4580601  0.2294620  0.2280873  0.2030282  0.0213547  0.2978098  0.0680551  0.1751399  0.1004261  0.0129383
0.005333	-35.7874985  0.2291433  0.3480477 -0.2846094  0.4153000  0.3354949  0.1120429  0.2107388  0.1916475  0.5570223  0.8594912  0.9409322  0.2773660
0.010667	-35.2612114  0.6540624  0.1007623  0.0541558  0.2610372  0.5816288  0.2103081  0.2204486  0.1809251 -0.0538253  0.0687656  0.1432467  0.3532177
0.016000	-35.6509972  0.7926084  0.6459520  0.1361376  0.5646698  0.5848944  0.2153559  0.3280810  0.3166816  0.5524153  0.6930748 -0.3501464 -0.2498507
0.021333	-35.5081291  0.6827158  0.3798943  0.3924140  0.4427061  0.3472370  0.3824067 -0.2208105  0.0321054  0.0268947  0.2185479  0.0847908  0.3888568
0.026667	-36.3497505  0.5195479  0.5047836  0.4866553  0.5287352  0.5847198  0.9263673  0.3292430  0.2373362  0.0838345  0.7873873  0.3754084  0.1036671
0.032000	-35.7294769  0.9752021  0.8279129  0.0883631  0.6809418  0.6165227  0.2136273  0.5534103  0.1913197  0.1665902  0.2530650  0.6202729  0.3306670
0.037333	-36.2575951  0.5310303  0.4790331  0.2178376  0.3773013 -0.1623060  0.4272704  0.5390430  0.3304222  0.1223661  0.2348102  0.4514786 -0.2531332
0.042667	-36.0248222  0.6417440  0.8103423  0.7337365  0.4095691  0.2575549  0.0051136 -0.2734808  0.3411942  0.2212834  0.3336207  0.1782373 -0.4095224
0.048000	-35.7207603  0.3547573  0.5114767  0.4152327  0.2353306  0.3567245  0.1749010  0.0337570  0.0415068 -0.0114322  0.1832076  0.5793877  0.1931204
0.053333	-35.9361992  0.4451996  0.9376891  0.2202356  0.0808546  0.3549818  0.4139767  0.1568657  0.2961566 -0.2017944 -0.1524519 -0.2166773  0.3843884
0.058667	-35.3721275  0.3586875  0.2519337  0.5370612  0.2287717  0.0742017  0.0913186  0.1919207  0.3886473  0.1234803  0.1795642 -0.1367428 -0.2141724
0.064000	-35.6204185  0.4225690  0.2009110  0.2382938 -0.2317081  0.2535393  0.3194294  0.0044883  0.0454769  0.2772632  0.6752573  0.0518461  0.0936308
0.069333	-35.5302086  1.0518359  0.5837697  0.3104293 -0.1501057 -0.0538958  0.5859227  0.0743423 -0.3267591  0.1364589 -0.1333565  0.0538654 -0.2826501
0.074667	-35.9215469  0.5274092  0.5582780  0.1059026  0.1026731  0.3417472  0.1094337  0.0706849 -0.0298507 -0.2696924  0.0969568 -0.1323434  0.1161326
0.080000	-36.5502853 -0.0225775  0.2661156 -0.1213087 -0.0192801  0.6308413  0.1342745 -0.0800681 -0.1510594 -0.0874118 -0.0804300 -0.0646012 -0.0012709
0.085333	-35.3282509  0.9234881  0.0551767 -0.5511320  0.2349141  0.2857652  0.0231304  0.2882682 -0.0794599  0.2572540  0.3262494  0.0996308 -0.0010216
0.090667	-36.1141739  0.3843653 -0.1110799 -0.0446229  0.6450610  0.3221262  0.3986859 -0.2230034 -0.2426653 -0.1516316  0.3265548 -0.2504681 -0.1755036
0.096000	-40.8887901  0.0693866  0.1433752  0.3140651 -0.3257976 -0.4226819 -0.1664705  0.1914671  0.0030470  0.3529838  0.0035611  0.1771792 -0.1159295
0.101333	-42.9508591 -0.8629507 -0.3226354 -0.2068505 -0.1701525 -0.1456339 -0.0570579  0.0312338  0.0307343 -0.0166413 -0.0367950 -0.0303857 -0.0468341
0.106667	-38.8122253  0.2159567  0.1855847  0.1362659 -0.2365017 -0.3878626  0.1777253  0.4817880 -0.0237372  0.2175392  0.3433307 -0.0823826 -0.4398630
0.112000	-37.1343689  0.2261152  0.0279424 -0.3035843  0.3857566 -0.0303499  0.1206346  0.6592988  0.4741056  0.2745097 -0.4050031  0.4292377  0.2868985
0.117333	-36.9731026 -0.2022411 -0.1452881 -0.3204226 -0.2667003  0.4411352  0.1470213  0.0901932  0.0388792 -0.2376381 -0.3889598 -0.0406209 -0.1436942
0.122667	-38.0193100 -0.2665921  0.2733270  0.2968442 -0.1005824  0.2070076 -0.2512174 -0.4091636 -0.0034199 -0.0078483  0.0356781 -0.0118182 -0.2876631
0.128000	-39.2789879  0.2040086 -0.0382509  0.1940833  0.0682495  0.1371865  0.0564332 -0.2548427  0.1653991 -0.2212570  0.1861217  0.3588002 -0.2072859
0.133333	-38.1029358  0.5670331  0.5476881 -0.1393110  0.3777684  0.3914077 -0.0848312 -0.3303865  0.1530950  0.2505767  0.2090192  0.2780468  0.1172732
0.138667	-37.3632545 -0.3436605 -0.1138642  0.0052305  0.6508021 -0.1140309 -0.4676785  0.2630310  0.5732307  0.4626124  0.1361307 -0.2935882  0.0379092
0.144000	-37.6741066  0.3728219  0.0066969  0.1105758 -0.0771330 -0.9828163 -0.0885429  0.6705797  0.0903234  0.3090340  0.1026161 -0.2426699  0.0287166
0.149333	-36.3779106  0.4345449  0.7858504  0.8765135 -0.0484521 -0.2578435 -0.0537329 -0.1535630 -0.0538521  0.2640353  0.1543167 -0.0505662  0.2281936
0.154667	-37.3138542  0.5246607  0.1536746  0.2608325  0.4397103 -0.3355527  0.2768559  0.2238737 -0.0073993  0.3507819 -0.0050778 -0.2882926  0.3299953
0.160000	-35.8022766  0.2403038 -0.3057772  0.4073381  0.1881502  0.1305480  0.2911191 -0.2105638  0.0279803  0.4116575  0.3159758 -0.3622073 -0.4184806
0.165333	-34.3752365  0.0674655  0.0259481  1.2620521  0.9870826 -0.1191570 -0.9501038 -0.1814042  0.0033002  0.8671480  0.0183260 -0.0617106  0.3480279
0.170667	-33.6639175 -1.2479653 -0.6837418  1.6221566  0.9060471 -0.0584988 -0.1663890  0.4622988 -0.6937180  0.2474484  0.0239074  0.2569164  0.5936606
0.176000	-36.3216515 -0.1826826 -0.2860944  0.8613336  0.6172196  0.0329868  0.0670705 -0.0345063 -0.3760030 -0.2819506 -0.0934432  0.4868456  0.8317852
0.181333	-36.3065376  0.4653020 -0.0197090  0.3705767 -0.0772471 -0.1992415 -0.2608905 -0.3727103  0.1276989  0.2944226  0.1124893  0.0208868  0.1120219
0.186667	-33.9686432  0.9124166 -0.0422674 -0.0389619  0.7315437  0.4229979 -0.1425219  0.1446828  0.2192392  0.3929027 -0.0424900 -0.0793175 -0.2460135
0.192000	-33.8331528  1.0356500 -0.3855380  0.1317984  0.8691548  0.6344931  0.1146407  0.0902585 -0.3944147  0.0152913  0.2026324 -0.1570380  0.3147503
0.197333	-31.8103523  0.4736756 -0.7299111 -0.2667027  0.7395396  0.5554026 -0.4217286  0.0185709 -0.2291261  0.1981106 -0.0044070 -0.2237948  0.4052820
0.202667	-32.2564926  0.1529199 -0.2798888 -0.0826489  1.3271391  0.8103325 -0.3627481 -0.1594216 -0.1307764  0.1870477 -0.1390601 -0.3776132  0.2717390
0.208000	-33.4571991  0.8024365 -0.2306204 -0.1009637  0.9054153  1.0962830 -0.3170094 -0.5429736  0.2067697  0.5076286 -0.1473379 -0.2050807  0.4099889
0.213333	-34.3824654  0.4697468 -0.4787404 -0.6149006  0.6438047  0.4107429 -0.2264709 -0.2555866  0.1916735  0.3795513  0.4040012 -0.2320327  0.5228685
0.218667	-33.3934402  0.6478584 -0.6690609 -0.0545770  0.9854473  0.6795450 -0.2646718 -0.0519130 -0.0038886  0.2820476  0.2507723 -0.1471862  0.6560407
0.224000	-35.4758568  0.7536800 -0.6338432 -0.0360572  0.6616955  0.9825872  0.2694182  0.0744662  0.5132816  0.6428994 -0.0743313 -0.4583293 -0.0070568
0.229333	-34.6811371  0.1901692  0.0675223  0.5104358  1.2621642  0.7498913 -0.0643873  0.1531490  0.0285234  0.1469015 -0.0206892 -0.1844453  0.3189065
0.234667	-35.3125610  0.7364728  0.3234019  0.5552462  1.3104115  0.6941615  0.2964005 -0.1118685 -0.6190003 -0.0076290 -0.1564466 -0.4937421  0.1436895
0.240000	-35.4489632  0.5842636  0.2894507  0.3664827  0.3744450  0.3213831  0.3792624  0.4025867  0.3519547  0.1102686  0.0521837  0.1900706  0.2585336
0.245333	-34.4630432  0.8020390  0.1613272  0.4581130  0.1003957 -0.0327075 -0.1394382  0.0531061  0.1193011  0.2670165  0.0635880 -0.1831182  0.4752520
0.250667	-35.0617332  0.3157539  0.1425425  0.5592584  1.3552647  0.7837608  0.1741838 -0.3691246  0.2233186  0.1748784  0.1384619 -0.1684818 -0.2257780
0.256000	-34.7518616  1.1571320  0.4995751  0.3488661  0.3889793  0.0506113 -0.3823152 -0.0893795  0.1045010  0.3316466  0.0556047 -0.2978289 -0.0357276
0.261333	-34.1491661  1.1191111  0.1208719  0.2020339  0.4648075  0.1351306  0.0588226  0.0940237  0.1620646  0.0354631  0.0851358  0.1614630  0.3245639
0.266667	-35.4071732  0.6887918  0.2243456 -0.0934361  0.5313507  0.8624458  0.4845657  0.3854443  0.4419994  0.7365906  0.1633918 -0.5544575 -0.0663176
0.272000	-34.8834953  1.0047863 -0.0679376  0.4841231  0.6498121 -0.0145494  0.0211964 -0.0704780  0.3835342  0.3590149  0.2016032  0.2262918  0.1281341
0.277333	-36.1144943  0.9442398  0.4178083  0.0976207  0.4677896  0.5636870  0.0567875 -0.8280053 -0.2294121  0.3309430  0.3036563 -0.1506772  0.0450976
0.282667	-35.3400116  0.7859840  0.4737116  0.0351844  0.5632583  0.2909496  0.0379543 -0.4069201 -0.0536315  0.2819503  0.3823804 -0.3490946  0.0369221
0.288000	-34.9152222  0.9309551  0.0361830  0.1966721  0.7779036  0.6851207  0.2398515 -0.0149026 -0.1612117 -0.3989408 -0.5099874 -0.3299706  0.2260714
0.293333	-36.0233459  0.6491733  0.2305569  1.0534985  0.8633888  0.4362735  0.1026649  0.0051254  0.4919794 -0.0371367 -0.3244028 -0.2216979  0.1810821
0.298667	-35.9677811  0.7629766  0.3267479  0.0453017  0.4469308  0.4747379 -0.1181636  0.0767752  0.1710217  0.5110509  0.1331546 -0.2519052  0.1980079
0.304000	-34.9202728  0.7902483 -0.7745258 -0.2656279  0.3979939  0.4267288  0.2409396 -0.3816321  0.2226653  0.3985207  0.0233785 -0.0211138  0.2526740
0.309333	-35.4810104  0.0924287 -0.2327158 -0.3946566  0.3609015  0.8400258  0.3575029 -0.5390974  0.5691006  1.0163558  0.4501816  0.3922889  0.2946860
0.314667	-37.3125153  1.0497432 -0.1611052  0.2040548  0.4822705 -0.4494162 -0.0802565  0.1875107  0.5037229  0.4500182 -0.1441056  0.1028652  0.1920652
0.320000	-35.9339371  0.2810795 -0.1720852  0.1265327  0.6539130  0.3258566 -0.3982868 -0.1173738  0.1391044  0.1858598  0.1573986 -0.0621830 -0.5773866
0.325333	-38.0086517  0.3802928  0.5119042  1.0099616  0.8057815 -0.0863724 -0.9350057 -0.0295905  0.4023197  0.4671733  0.3245358  0.2678069 -0.1852618
0.330667	-36.8600426 -0.1336256 -0.2966066  0.3885798  0.9831229 -0.1104775 -0.2371130  0.0414050  0.3854945  0.3155932 -0.2437605  0.2735486  0.0661595
0.336000	-35.2658005  0.3454455  0.2174871  0.2798314  0.6997392  0.4655904 -0.0591059  0.2544822  0.0818987  0.4149593  0.3924141 -0.4837223 -0.4215045
0.341333	-35.5131035  0.3166642 -0.2420977 -0.1403790  0.5509483  0.4702486 -0.4523830 -0.3814148  0.4423213  0.3110688  0.5433651  0.2785108 -0.2043706
0.346667	-37.8942375  0.0936425 -0.6417820  0.2895806  1.1983663  0.9108394 -0.0735660  0.2738400  0.4804168  0.8778369  0.3645313 -0.2928051  0.0013833
0.352000	-36.8575134  0.1658148  0.6051575  0.4419706 -0.2650908 -0.5198787 -0.3133612 -0.3113267 -0.1014166  0.0584984 -0.2615200 -0.1791178  0.4532139
0.357333	-36.5285759  0.1870424  0.6867049  0.4358599  0.2431629  0.1191170 -0.1480131 -0.1073850  0.2170193  0.1875979 -0.3183004 -0.2882375 -0.1400268
0.362667	-38.3029747  0.5652066  1.0567789  0.7917988  0.2790429 -0.4692788  0.0543966  0.0077721  0.2267208  0.3889750  0.2896673  0.0692419  0.0729766
0.368000	-35.5094681  0.5007313  0.0706652  0.1335122  0.2922317  0.1440165 -0.2544394 -0.5312096  0.4138789  0.9282638  0.5213492 -0.1541947  0.5442457
0.373333	-35.6466446  0.6874418  0.3019225  0.2726231  0.5075750 -0.2673924 -0.6881571 -0.1760987  0.3119442  0.2993202  0.0844682  0.0508990 -0.2986374
0.378667	-35.3430481  0.7410542  0.5272624 -0.0253122  0.6609322  0.2263740  0.1428900 -0.0405763 -0.1458611 -0.2169493 -0.0172912 -0.1806185  0.0741793
0.384000	-36.7723656  0.5241991  0.3301856  0.2326351  0.4302971  0.2116395  0.0671878  0.3699006  0.3034215  0.3246214  0.1332561 -0.1150161 -0.2468611
0.389333	-37.0939484  0.8034817  0.0389429 -0.1334763  0.2703567  0.1847312  0.0283332 -0.4695915 -0.0669439 -0.4313570  0.0243695  0.3500293  0.0125347
0.394667	-36.5309639  0.2695395  0.3740404  0.4442636  0.0362907 -0.1569096 -0.1074038 -0.2925414 -0.0444670  0.2164030 -0.0572581  0.0723730  0.2568700
0.400000	-40.0900764  0.8333629  0.0222720  0.0854114  0.1580024 -0.2466911  0.2170997  0.1169533  0.4436066  0.0370169 -0.2241507 -0.2114842 -0.0030811
0.405333	-36.1221313  0.1117753  0.1555698  0.0240136  0.1845486  0.2189266  0.3418999  0.3961328  0.3561554  0.5396719  0.1433616  0.4914330  0.3009118
0.410667	-35.3271484  0.7062220  0.4105886  0.1030020  0.2696241  0.1122971 -0.6780539 -0.1939979 -0.0196555 -0.2511199  0.1559173 -0.0837407 -0.2209171
0.416000	-35.5001183  1.0433085  0.2536862  0.2611551  0.5749615  0.2143939 -0.0531683 -0.3526553 -0.2055333  0.0357820  0.0661368  0.2853093  0.1830509
0.421333	-40.4333611 -0.2102805 -0.0526759  0.4044714  0.8007159  0.3425587 -0.3873553  0.0881662  0.7597384  0.6500343  0.2977223 -0.1641752 -1.0735390
0.426667	-38.2941246  0.1103165  0.1959679  0.1392047 -0.1473703  0.1726305 -0.1435633 -0.4309170 -0.5697985 -0.4785689  0.0149733  0.0625826  0.2159050
0.432000	-37.0651283 -0.1413683 -0.0655562  0.1449416 -0.2424519  0.4681224  0.2755179 -0.7598474 -0.4051647  0.4079610  0.1519960 -0.0760777  0.0832454
0.437333	-35.7540703  0.1839981  0.2957531 -0.0389240  0.3398880 -0.5016640 -0.6217585  0.3734493  0.1174736  0.4076356  0.3316894 -0.0637259 -0.2701055
0.442667	-35.8579597  1.0736783  0.5321497  0.1555833  0.1426739 -0.1442473  0.1068830  0.0716326 -0.2604291 -0.1279776  0.2973930  0.1259838  0.1755919
0.448000	-37.0875549  0.1998311 -0.1156759  0.0158780  0.3758315  0.3237844  0.2242212  0.3709319  0.4822171  0.7521313  0.0948946  0.1487662  0.3273147
0.453333	-37.5964394  0.0771960  0.7131542  0.0069142  0.0731411  0.5354782  0.4540367 -0.0904925 -0.2090559  0.4593118  0.1400015  0.2782423  0.1310250
0.458667	-36.6652031  0.4975049  0.3776732  0.4677787  0.2508748  0.0833264  0.1201982  0.0568805 -0.2940805 -0.1063825  0.2683688 -0.0422629  0.2119081
0.464000	-36.4836006  1.0729735  0.5918834  0.4008889  0.4011567  0.0648010  0.1442022  0.1001053 -0.0058222  0.0447882  0.4679181  0.4301839  0.1836058
0.469333	-35.6902885  0.2211852  0.4467293  0.3593842  0.0110797  0.5015918  0.1919188 -0.0395715  0.3726258  0.3041175 -0.0565547  0.1822382 -0.1526989
0.474667	-36.0085449 -0.0464524 -0.1267148  0.1127216  0.4637265  0.0362157  0.2144556  0.4479704  0.4678817  0.5633136 -0.2442224 -0.4474970  0.1447988
0.480000	-36.2235985  0.4789246  0.2162815  0.4547213  0.9624507  0.5458280  0.3475876  0.0955836 -0.0250318  0.3375266  0.0789734 -0.0056561 -0.0031997
0.485333	-36.4165154  1.0646927  0.3052225  0.3783311  0.5561656  0.3886731  0.3855171  0.0686572  0.2104721  0.1384863  0.0782669  0.5941949 -0.0451437
0.490667	-35.9332275  0.4944276  0.0820161  0.3503877  0.5505251  0.0270183  0.3098841  0.1301285  0.2554624 -0.0527080 -0.2745942  0.0687734  0.7982349
0.496000	-36.2121201  0.4558134  0.5708582 -0.1915969 -0.0838254 -0.1911248 -0.1271338  0.5136805  0.2826931  0.2467322  0.5822483  0.0795662  0.3270599
0.501333	-36.6477737  0.3886251  0.7515536  0.7423046  0.6462947 -0.0172083  0.0535350 -0.1601396  0.3012488  0.3021963 -0.1098602  0.4682999  0.1102453
0.506667	-35.5594025  0.3940303  0.3227539  0.0181652 -0.0286810 -0.0426419  0.3127522  0.6910247  0.3822892  0.0024111  0.1764096  0.4450855 -0.2056514
0.512000	-36.1086197  0.5102252  0.2338111 -0.1166211  0.2706042  0.2629657  0.1089664  0.4225937  0.7576060  0.3274368  0.2443089  0.1782311  0.3602999
0.517333	-37.3369141  0.5471377  0.5014639  0.4189652 -0.0293442  0.0036878  0.2111869  0.6815974  0.3136458  0.2201358 -0.1140219  0.2365844  0.5532752
0.522667	-35.5581665  0.1758204  0.4376098  0.4040756  0.1347726 -0.2972980 -0.1658092 -0.0620520  0.3823438  0.4655196 -0.0206919  0.3408173  0.1410568
0.528000	-35.9199562 -0.0009474  0.1256070  0.0939170  0.3416301 -0.1633510  0.0261254 -0.1916921  0.2315018 -0.0384656 -0.1402208  0.5179898  0.3177347
0.533333	-37.1674881  0.9421685  0.5015215  0.2211940  0.2655070  0.6242704  0.7580266  0.5278983  0.2086639  0.2479651  0.1208127  0.2394129 -0.2218461
0.538667	-35.8834572  0.7282435  1.0704416  0.3887593 -0.1697146  0.4157545  0.4329405  0.0157924 -0.2858397  0.3999084  0.2604022  0.1096710  0.1626662
0.544000	-35.7024498  0.6084480  0.9658323  0.7613806  0.1360898  0.2645355  0.0872774 -0.1571717  0.0728443  0.0937955  0.3551418  0.1301329  0.1230015
0.549333	-36.7035599  0.4946572  0.2047652  0.4904378  0.6633340  0.1996447 -0.1466861  0.4183146  0.2667172  0.2572794  0.0834436  0.3489710  0.6684285
0.554667	-35.7853165  0.8364956  0.3687670  0.4832925  0.6675203  0.4264663  0.0359101  0.2685587  0.2479711 -0.1169982 -0.3535334  0.3859770  0.6185132
0.560000	-35.5520630  0.5280405  0.4700601  0.1523674  0.3154100  0.5420083 -0.0239868  0.1666797  0.1942091 -0.0923024  0.3879782  0.1300151  0.1220556
0.565333	-35.9845200  0.7709844  0.7586870  0.3387379  0.4201400  0.2866848  0.4275360  0.2444285  0.0783877  0.1482073  0.3680853  0.1722791 -0.3150325
0.570667	-36.6374321  1.1086959  1.0648324  0.2378215  0.2251255  0.3160471  0.3589973  0.1861018  0.1474111  0.5504272  0.2096061 -0.0693018 -0.0682530
0.576000	-36.3171921  0.0651610  0.0590803 -0.1073171  0.3667531  0.4061857  0.0419583  0.0650144  0.1725640 -0.0379046  0.6441083  0.1167222  0.1224660
0.581333	-35.5577126  0.3802015  0.6816338  0.5007013  0.3245898  0.1564793  0.4234290  0.4408115  0.2866986 -0.1146563  0.3113204  0.2442743  0.2946359
0.586667	-37.0548248  0.9683677  0.2133873 -0.4200057  0.2725911  0.4650770  0.4910417  0.4010739  0.3528476  0.4998120  0.6378419 -0.2002045  0.3057384
0.592000	-36.0491714  0.3839456  0.2232440  0.3444900  0.5049865 -0.1051741  0.1979580  0.3928543  0.1340785  0.6427184  0.0632778  0.0973501  0.2616040
0.597333	-37.0330429  0.6737520  1.1434087  0.6046206 -0.3413206 -0.3561990  0.4418120  0.9762065  0.7265818  0.0420774  0.2793251  0.0956678  0.0427651
0.602667	-40.8565750  0.8002461  1.0340345  0.9659640  0.5176282 -0.0658531 -0.2013144  0.2566615  0.4079781  0.0896235 -0.0053270  0.1266630 -0.2081755
0.608000	-35.8347206  0.5423223  0.0999575  0.5307465  0.2980333  0.1786845 -0.2311001  0.0797358  0.0403762 -0.1353909  0.1368645  0.4340242  0.4104279
0.613333	-35.6624107  0.2586759  0.3260559  0.1819742 -0.1503710  0.0267577 -0.1490197 -0.0986761  0.5134037  0.5841507  0.2160006 -0.0478215  0.4665660
0.618667	-39.0601883  0.3690090  0.5966386 -0.1575350  0.3662740  0.2818924  0.0527015  0.5897313  0.5277359  0.5501542 -0.1186770 -0.2634894  0.0172977
0.624000	-37.0756302  0.3378147  0.8108149  0.5103264 -0.3707358 -0.7540361 -0.0418921 -0.0544733  0.2656903  0.1743418  0.0220178  0.5912539  0.2191389
0.629333	-36.6733742 -0.3347696 -0.0787926 -0.1847240 -0.1645373  0.3835170  0.1319284  0.3160123  0.4825463  1.0652159  0.3663499 -0.0737652  0.1827948
0.634667	-37.9978485  0.4325349  0.4861153  0.3008560 -0.1056858  0.5583784  0.0599670  0.6567962  0.4494483  0.8925806 -0.2059420 -0.0498075  0.0862988
0.640000	-37.3121033  0.6088784  0.3062591  0.2145650 -0.0588416 -0.0966736  0.2219362 -0.0433445  0.1725693  0.1302383  0.4915141  0.3194931 -0.2701840
0.645333	-36.7249680  0.4014591  0.6525249  0.2635178 -0.5637415 -0.2844645  0.1371384  0.0805704  0.1921828  0.0202053  0.0616965  0.0628611  0.0268613
0.650667	-35.9604759  0.5689391  0.6621146 -0.1662840  0.3715471  0.0514159  0.2960458  0.1977275  0.1333129  0.3851184  0.0572313 -0.2818673 -0.0893431
0.656000	-39.2075806  0.3795359  1.0499932  0.5966179  0.5761095  0.0247035  0.0899515 -0.3004775  0.0387635 -0.0305505  0.3888369  0.2677430  0.3021064
0.661333	-38.6567078 -0.0642126 -0.2119746  0.4370097  0.3263604 -0.0084001 -0.1665335  0.3113324  0.0630863  0.3094101 -0.0369437 -0.0210373  0.3547244
0.666667	-263.7279358 -0.0000019  0.0000014  0.0000019 -0.0000046  0.0000025 -0.0000229  0.0000103  0.0000172 -0.0000048 -0.0000038 -0.0000010 -0.0000238
0.672000	-39.7731361 -0.2330192 -0.2882553 -0.1279506 -0.3213736  0.1573252  0.0692449 -0.0480720  0.3202548  0.6558419  0.5104513  0.2875894 -0.0755143
0.677333	-35.7182159  0.8607073  0.6767788 -0.4092618  0.0377067  0.1845832  0.3771448  0.2511324 -0.0429544  0.1011215  0.1946284  0.1448922 -0.1483626
0.682667	-38.6515427  0.3740637  0.8839453 -0.0889444 -0.0295229  0.4571229  0.2003326  0.0817465  0.0632200  0.1447495  0.2357768  0.1139770 -0.0945534
0.688000	-40.8033524 -0.1256964 -0.0383976 -0.1795475 -0.3026540 -0.3155054 -0.0912194  0.4096038  0.7232420  0.4907960 -0.0652305  0.0236042  0.5193819
0.693333	-39.7197723  0.5587354  0.2151797 -0.5431952  0.3125441  0.5503949 -0.0859385  0.7316780  0.9144239  0.0538031  0.1900243  0.0330601  0.2830650
0.698667	-39.3493881  0.3117601 -0.3035538  0.0059234  0.4577903  0.9956163  0.4098830 -0.2359703  0.2517264  0.3274441  0.2062640 -0.0748138  0.3453754
0.704000	-37.2718620  0.4293326  0.4589172  0.1013479 -0.1834885 -0.0742715 -0.1450725  0.6068430  0.1083176  0.4986287  0.0099082  0.0862104  0.5428561
0.709333	-36.2527618 -0.0341350  0.2284186  0.4376308 -0.2243155 -0.2198137  0.1993871  0.2698072  0.0143492  0.1997904  0.2491163 -0.0607219  0.0465734
0.714667	-35.6004753  0.7377466  0.5516483 -0.4062609  0.2089425  0.2275453  0.2169948  0.0354848 -0.1068823  0.3386260  0.2460313 -0.1008401  0.1799121
0.720000	-39.1253700  0.3500974  0.5636594 -0.2931331 -0.1035833  0.4590757  0.3271918  0.3582408  0.4928098  0.2934592  0.4607579  0.1131052  0.4809988
0.725333	-35.7711296  0.4033514  0.1108450  0.3789634  0.1791429 -0.0636105  0.0306220 -0.2772158 -0.1730907  0.0869198  0.4778494  0.4411204  0.5810273
0.730667	-37.0927277  0.7203596  0.2286174  0.4191172  0.7777139  0.8186067  0.5235839  0.3285765 -0.0286183  0.3902489  0.6583560 -0.0850576 -0.1784451
0.736000	-36.3417244  0.5867286  0.6792842  0.3910357  0.0373713 -0.3225597  0.0474257  0.2924129  0.1197567 -0.2205392 -0.0502666 -0.1256193 -0.0639582
0.741333	-35.8270721  0.6136332 -0.0432715  0.4774134  0.1509815  0.3309853  0.1795573 -0.2037977  0.2059548  0.1522100  0.3458643  0.0402793 -0.2720023
0.746667	-36.7258453  0.5841947  1.1560274  0.3421646  0.0008604  0.3395505  0.3731990  0.0790894  0.2856820  0.3668933  0.3169190 -0.0605308 -0.0333440
0.752000	-41.1385345 -0.2573160  1.1049721  0.8499748  0.0264447  0.2298999  0.2618856  0.3935902  0.3597066  0.3457494 -0.0124484  0.2198350  0.2835191
0.757333	-35.9608727 -0.0624413  0.2172604  0.0465896 -0.3518433 -0.3405003  0.2258992  0.1174417  0.3039737  0.2360545  0.2288691  0.0860236  0.1736954
0.762667	-35.9039574  0.0215999 -0.3028843  0.3180448  0.7355675  0.2145380  0.0760498  0.1629537 -0.3151140 -0.4575537 -0.0386015  0.2969303  0.1935643
0.768000	-40.3454399  0.0796188  0.2077404  0.0771608 -0.0054926  0.0925794  0.2175169  0.0366607  0.1622548  0.4361066  0.3634403 -0.0732712 -0.2670715
0.773333	-36.6147385  1.1570926  0.2226412 -0.3330998  0.4398638  0.0699885 -0.0255489 -0.2448776  0.1519053  0.8782467  0.5690915  0.1759083  0.1135528
0.778667	-36.6237183  0.2552923  0.5952018  0.4507208 -0.1771397 -0.3478400  0.1274271  0.1795918  0.0041869 -0.0196540 -0.1723506  0.2371587  0.0499201
0.784000	-37.5478401  0.4438330  0.0753396  0.1427748  0.0744035  0.0684042 -0.2439003 -0.1955684 -0.1646185  0.1389662  0.1637474  0.1338918  0.2158811
0.789333	-37.3560638  1.0158625  0.5736079  0.0709926 -0.2738680 -0.0232054 -0.1906085  0.0365537 -0.3005145 -0.0605782  0.3761050  0.2043724  0.1560645
0.794667	-36.1731606  0.6004246  0.6293223  0.0696843 -0.0395367  0.1211970 -0.0849371 -0.2506579  0.2066095 -0.0018648  0.5413973  0.6582454  0.0309273
0.800000	-40.6826210  0.6603080  0.5552230  0.1427059  0.1721905 -0.3475988 -0.3934441  0.7565901  0.3123889  0.4430283  0.1001277  0.0677638  0.1479360
0.805333	-37.7235756  0.2192869  0.6679141  0.3809956  0.0246385 -0.3155316 -0.3797202 -0.1137874 -0.5934300 -0.1835064 -0.1194259 -0.1122019 -0.0220789
0.810667	-36.4036255  0.4259111  0.7649717  0.6440867  0.1317467 -0.2268161 -0.1064596  0.0544258  0.3923676 -0.0421716 -0.4728253  0.3452815  0.3014120
0.816000	-40.2024002  0.1589937  0.0997166  0.7720087  0.4468460 -0.0662957 -0.1526637 -0.0202124  0.8046374  0.0879871  0.3953055  0.3120730  0.0045841
0.821333	-36.7002106  0.0941626 -0.3416631  0.3403852  0.1525800  0.2231970  0.4946365  0.3247575  0.3221672  0.5564870  0.1734291 -0.1483946 -0.2736133
0.826667	-40.3111877  0.1388488 -0.0567969  0.1534590  0.1707658  0.6156642  0.5161037  0.6426315  0.1264946  0.0420105  0.5858200  0.4858069 -0.5268776
0.832000	-263.7279358 -0.0000019  0.0000014  0.0000019 -0.0000046  0.0000025 -0.0000229  0.0000103  0.0000172 -0.0000048 -0.0000038 -0.0000010 -0.0000238
0.837333	-263.7279358 -0.0000019  0.0000014  0.0000019 -0.0000046  0.0000025 -0.0000229  0.0000103  0.0000172 -0.0000048 -0.0000038 -0.0000010 -0.0000238
0.842667	-38.3250504  1.2873144  0.3131732 -0.2559065  0.7262660  0.3199477 -0.3777065 -0.0167764  0.3339100 -0.1163741  0.0241786  0.2462454 -0.0809262
0.848000	-37.2048798  0.3763528  0.0007904  0.0757859 -0.0594066  0.5765274  1.0277076  0.8042719  0.7311516  0.4765466  0.0224811  0.3749278 -0.0796582
0.853333	-35.5090332  0.7725717  0.3687732  0.4688543  0.4488221 -0.1096446 -0.1470490  0.2435157  0.4924841  0.3340403  0.0142784  0.0027028 -0.0645655
0.858667	-36.7206573  0.9931711  0.5949500  0.5841404  0.4943532  0.4679894 -0.1053138  0.2885307  0.8990490 -0.0673001 -0.0759445  0.1751565  0.2352352
0.864000	-35.9793472  0.2316135  0.2459028  0.8776858  0.8233231  0.6498218  0.4886594  0.0902165  0.1613333 -0.0732127  0.2070179  0.3954004  0.4667124
0.869333	-36.1270332  0.4780569  0.4608794  0.2180255  0.1660635  0.1566972  0.7773008  0.5539982  0.3220520  0.6494403 -0.1037156  0.0555348  0.2981566
0.874667	-36.2824860  0.7445208  0.9147850  0.6630312  0.4751980  0.5927143  0.7646976  0.3855331  0.5471320  0.2517468 -0.1579969  0.1246709 -0.1471984
0.880000	-35.9424934  0.3687611  0.5484021  0.7349593  0.2395975 -0.1666278  0.5367599  0.3131538 -0.0865057 -0.0720302  0.5875003  0.8174042  0.2613832
0.885333	-35.7320175  0.5115172 -0.0200092  0.3928635  0.5171516  0.2839860 -0.1984878  0.0861748  0.4817250  0.4020566  0.0304528  0.1459261 -0.0035570
0.890667	-35.5430374  0.3849651  0.6407822  0.5893641  0.5784658  0.3430433  0.6279922  0.4059710  0.2436368  0.2580834  0.3996739  0.7106386  0.1860865
0.896000	-35.8344002  0.6721568  1.0088202  0.7976718  0.4490830 -0.1334130  0.0258160 -0.0015375  0.5416452  0.0822529  0.0626397 -0.0251317  0.5369239
0.901333	-35.8478394  1.3784329  1.1252891  0.7272995  0.2845722  0.4780319  0.3085728  0.2124896  0.0495641  0.1901599 -0.1148695  0.0922586 -0.0684479
0.906667	-35.1043701  0.9169852  0.3947096  0.4727441  0.2657456  0.3273365  0.3047709 -0.1845466  0.0692368  0.6676704  0.3471870  0.2792630  0.0380284
0.912000	-35.5175705  1.3624196  1.0265160  0.7881597  0.3270012 -0.6666769 -0.7832432 -0.5694097 -0.0457611  0.4197502  0.1729535  0.1477735  0.1145911
0.917333	-34.7370262  1.3475022  0.9634085  0.8276758  0.2061225  0.3754036  0.2112675  0.0267631 -0.3288602 -0.2731215  0.3711715  0.2049490  0.5446455
0.922667	-34.7330666  1.2825997  0.8076917  0.7193023  0.3954926  0.2668536  0.3458138  0.0565964 -0.0880744 -0.2923814  0.4057691  0.1668459  0.0444554
0.928000	-36.6378822  1.0709807  0.1117345  0.7379149  0.5003367  0.6800500  0.1625123 -0.2150900  0.0969696  0.2165252  0.0982652  0.4582483  0.5340186
0.933333	-35.3634109  0.6574801  0.4486273  0.7282764  0.4551420  0.7126321  0.1802692 -0.2847128  0.1889708  0.4843487  0.2948073  0.2582693 -0.2802569
0.938667	-34.7031097  0.8118878  0.7744142  0.9051385  0.4327025  0.6919962  0.6708870  0.7745124  0.1505177  0.0772365 -0.3174324  0.1605451 -0.1225901
0.944000	-35.4838562  1.3802460  0.4310911  0.3495395 -0.1343027  0.3460061  0.1132970  0.0476544  0.2246518  0.4140575  0.6254977  0.1651576  0.3632036
0.949333	-33.9155426  2.0386155  0.6424120  0.4910080  0.3187185  0.4091187  0.1771936 -0.2287962  0.3144131  0.7224844  0.0316614 -0.1174839 -0.0983788
0.954667	-34.8928223  1.0220090  1.0753447  0.9441698  0.1498044  0.0998667 -0.4515839 -0.1612776  0.6332116  0.5697038  0.5641688  0.3469228  0.0982330
0.960000	-34.1511688  1.9911782  1.0761644  0.5463170 -0.3250173 -0.0640548  0.0772815  0.4657021  0.3949649  0.2139802 -0.0727088  0.0778981 -0.0495461
0.965333	-33.8374557  0.5620372  0.8534285  0.5223866 -0.0471604  0.5605202  0.4113307  0.3583005  0.5474734  0.5879791  0.1323020 -0.0472049 -0.3898826
0.970667	-33.5037270  1.9677495  0.8413074  0.5591022  0.0744697  0.0629855 -0.3389354 -0.1431751  0.5079212  0.1178500  0.1189549 -0.3252412 -0.4687598
0.976000	-32.7655258  0.9365049  0.4921491  0.3480353  0.4394790  0.3110934  0.0033259  0.4489588  0.5112910 -0.1314695 -0.1662716 -0.0038739 -0.1030563
0.981333	-32.8435097  1.3928736  0.2626878  0.4496515  0.5506753  0.3162475 -0.0747304  0.4165750  0.4792097  0.5247987 -0.2936615  0.0378953  0.1296916
0.986667	-33.7075081  1.0882006  0.2951188  0.3618901  0.4489413  0.1062968 -0.3154411  0.3900526  0.5742464  0.4924067  0.5979618  0.3087091  0.9162313
0.992000	-33.2100983  0.7727182  0.1708290  0.1665455  0.2876899  0.5279475 -0.2192430  0.1479285  0.2055929 -0.1262997 -0.1939518 -0.0611786  0.4786676
0.997333	-32.4672890  1.2420411  0.2751985 -0.2399787 -0.0861541 -0.0219458  0.5075140  0.5633789  0.3522615  0.1963903  0.0862993  0.0086292 -0.0109406
1.002667	-32.5442200  1.4413326  0.3039418  0.2309234  0.6817014  0.3401526 -0.6170778 -0.1523312 -0.2221985 -0.0430743  0.0627073  0.2103972 -0.0594256
1.008000	-29.4524403  0.8562935 -0.3604040  1.7430596 -0.6856886  0.5798687  0.1657424 -0.1148442  0.2517183  0.0794408  0.1776297  0.5692490 -0.5245473
1.013333	-23.8197174  1.2538816 -0.1687713  1.2203979 -0.4986113  0.5460331 -0.9008210 -0.2649136  0.5905230  0.0797786 -0.3897876  0.0689828 -0.2556814
1.018667	-26.1973152  1.3080304  0.3211307  0.7439542 -0.0985506  1.1393931 -0.2951276 -0.1481119  0.3442562  0.3225116  0.0439412  0.2841325  0.1450453
1.024000	-24.9103203  3.2915881  0.9372805  1.1972146  0.3081634  0.5350738 -0.0617983 -0.1300420  0.1585937  0.2848105  0.1294452  0.2668947 -0.2277434
1.029333	-23.3837376  4.0161238  1.0922730  0.8975545  0.1107005  0.1972610  0.1745141 -0.6762199 -0.0827987 -0.1114624 -0.0346217  0.1350373 -0.4857260
1.034667	-21.9535904  3.7084503  1.1491071  0.2603532 -0.0581579  0.3414041  0.0877299 -1.6610963 -0.3983824  0.1744685  0.2495357  0.2656364 -0.9929798
1.040000	-21.9922180  4.5556097  0.6347468  0.8204442 -0.2586217  0.3476747  0.5805249 -1.2601610 -0.1497836 -0.1029988  0.4510511  0.2728916 -0.8660590
1.045333	-21.3132076  4.3620911  0.9757938  0.1597905 -0.0404535  0.0535514  0.2541020 -1.1941634  0.3240529  0.1196995  0.2451271  0.2501399 -0.5789753
1.050667	-21.7134972  4.4801717  0.7832298  0.2758110 -0.1801955  0.2585033  0.5747118 -1.0557449  0.2856467  0.0357044  0.0092994  0.4229487 -0.6306679
1.056000	-22.2738209  4.3674102  1.0856614 -0.0833352 -0.6269556  0.2565579  0.4507570 -1.0294113  0.0987587 -0.0909486  0.3896275  0.8312484 -0.4478977
1.061333	-21.8593674  4.5197153  0.8587761 -0.0507656 -1.0699556  0.3347316  0.4838524 -1.4267952 -0.0973544 -0.1752545  0.5022907  0.8184963 -0.4569787
1.066667	-20.8557072  4.6334987  0.6100947  0.0578307 -1.0315728  0.2001042  0.5998707 -1.3145092 -0.0632610 -0.1591907  0.3271058  0.7820593 -0.5168303
1.072000	-20.6015205  4.6549430  0.7708357 -0.0908204 -0.6959174  0.1813820  0.5895665 -1.0111020 -0.0215635 -0.0959368  0.2383930  0.7159587 -0.5710117
1.077333	-21.1876945  4.8118429  0.7321544  0.2141341 -0.8595510  0.2676969  0.6166356 -0.8130248  0.1484424 -0.1552576  0.2839307  0.5082971 -0.2667072
1.082667	-21.5491581  4.6986318  0.5295233 -0.0650929 -0.9157265  0.3860487  0.6509879 -0.8832610 -0.0684434  0.0810521  0.5214224  0.6474059 -0.2746354
1.088000	-21.6889324  4.7309561  0.3880362  0.0333445 -1.3771293  0.4077919  0.5006638 -0.9762242 -0.4057091  0.0418260  0.8475127  0.8113623 -0.2311047
1.093333	-21.1031361  4.9718227  0.4596474  0.0265243 -1.3416026  0.3812878  0.4451280 -0.9976412 -0.3910506 -0.1590398  0.5864092  0.6694772 -0.3415620
1.098667	-20.8041553  4.9719276  0.5666355  0.1910044 -1.2720923  0.2866977  0.4928541 -0.6835525 -0.4001111 -0.0828248  0.4313918  0.6890162 -0.4548401
1.104000	-21.2540550  4.8754754  0.9276025  0.1252282 -1.0381148  0.2568740  0.6260159 -0.7141843 -0.1983601 -0.0216861  0.2757121  0.7784933 -0.4853653
1.109333	-21.7541027  4.9214849  0.5995777 -0.0597674 -0.8505259  0.3076949  0.5892138 -0.6067166 -0.2529231 -0.0712640  0.3145510  1.0431848 -0.4782121
1.114667	-21.8392696  4.6446581  0.4737345 -0.1434001 -1.1396544  0.2754413  0.1077394 -0.9534316 -0.2208811  0.0901803  0.4483593  1.1797987 -0.4063448
1.120000	-21.0587902  4.7914677  0.5166684 -0.1567829 -0.7274050 -0.0732448  0.1427627 -1.0301062 -0.0703399 -0.1471019  0.7018659  0.6957046 -0.7031619
1.125333	-20.4093933  5.1018763  0.2324517 -0.2555305 -0.5860782  0.1297871  0.1604872 -0.4936724 -0.1149628 -0.1266939  0.2442595  0.8356271 -0.7768674
1.130667	-20.9433823  5.1983385  0.2678128 -0.3334870 -0.4345061 -0.0246831  0.5876145 -0.3148676 -0.1433072  0.0298293 -0.0485126  0.7568301 -0.6827811
1.136000	-21.6819210  4.9050064  0.1919108 -0.2389417 -0.2602452  0.1862634  0.3150437 -0.4004251 -0.0758220  0.0885119  0.0489220  0.8611968 -0.7356451
1.141333	-21.0744286  4.6277142  0.2015700 -0.6369337 -0.5677349  0.3261255  0.1736920 -0.7466148 -0.1613100 -0.0882663  0.2396681  1.0771084 -1.0018485
1.146667	-20.3074722  4.8845358  0.1511599 -0.5198998  0.1862598  0.3851516 -0.0893822 -0.6613311 -0.1427484 -0.1019026  0.0862632  1.0455253 -1.2080826
1.152000	-20.2574959  4.8032193  0.1558616 -0.3880638  0.6844044  0.5150483 -0.1753371 -0.6823212  0.1082467 -0.3998316  0.2202591  0.8261442 -1.0283051
1.157333	-21.4650002  4.6630993  0.3231414 -0.3914356  1.0733254  1.0022632 -0.2259815 -0.6669255  0.0221202 -0.5585392  0.2448279  0.7473316 -0.6500278
1.162667	-22.1872940  4.4848757  0.2899669  0.2387912  0.7188379  0.8102565 -0.2619777 -1.0207877 -0.2375565 -0.2129135  0.5838993  0.5296574 -1.0173478
1.168000	-22.0408974  4.6799173  0.6643424 -0.0054690  1.0197133  1.0165384 -0.5805686 -0.7214512  0.2267808 -0.7780560  0.2133240  0.2783912 -1.0442014
1.173333	-23.0782623  4.7938986  0.7663485  0.2094548  1.2713325  0.8295794 -0.1796637 -0.5488617  0.2288291 -0.5232285  0.2109670  0.3548071 -0.2876886
1.178667	-24.5432396  5.2217712  0.7263227  0.1824718  0.6351289  0.6028939  0.2156303 -0.5777501  0.0082511 -0.3734663  0.8721129  0.7071151 -0.4464774
1.184000	-24.9608307  4.9229770  0.6716961  0.1272473  0.7646326  0.1735435 -0.4588950 -0.7343125 -0.0391303  0.0043195  0.6727870  0.1060817 -1.1328270
1.189333	-25.1649590  5.1119690  0.9596719  0.6797497  1.1673572  0.5500253 -0.4116840 -0.0422786  0.3173637 -0.1387892  0.8280163  0.1311567 -0.8337762
1.194667	-25.2551174  5.4378657  0.8684283  0.7613481  1.0055255  0.7981374 -0.0373766 -0.4993401  0.2033094  0.3004997  0.2308338 -0.0475543 -0.6726248
1.200000	-25.6658573  5.3087292  0.6061716  0.3993776  0.8066607  0.6021765  0.1884153 -0.1260709  0.2598797 -0.4758959  0.3245261  0.4326166 -0.3699561
1.205333	-25.9510727  4.8799362  0.5368226  0.7149304  1.4093156  1.0219113 -0.0786858 -0.7716680  0.1473800 -0.3317865  0.2777438  0.2162844 -0.1817732
1.210667	-26.2967091  4.8005514  0.7369443  0.6073911  1.1039221  1.0306834 -0.0483880 -0.2503692  0.7909577  0.0145957  0.2448207 -0.3163664 -0.5954601
1.216000	-26.3249531  4.5882859  0.4097601  0.7606870  0.8850564  1.0002476 -0.0300734 -0.6151392  0.5578036  0.2775422  0.5164376 -0.0538007 -0.5449504
1.221333	-25.0620422  3.5310416  0.2782683  1.6538757  0.4396448  1.1806095  0.4930990 -0.2206085  0.3607476  0.0512409 -0.2936831 -0.2011358 -0.6168296
1.226667	-23.7862568  1.7014518  1.1772904  1.4485478 -0.1271549  0.7757812 -0.4665780 -0.2421345  1.1227956  0.1548365  0.1859613  0.3442822 -0.4776500
1.232000	-23.0103722 -0.0922215  1.4638438  1.3095782 -0.2873601  1.3936330 -0.1954286 -0.9166580  1.0181515  0.8676764 -0.6018710  0.0956542 -0.5844785
1.237333	-23.0920258 -0.3348020  1.4442166  1.1194072  0.8068829  1.6403245 -0.1819253 -0.4531699  0.4520319  0.0704998 -0.2037396 -0.0657839 -0.4561593
1.242667	-23.4419861 -1.1701541  1.7471268  0.9457591 -0.0188845  1.7949567 -0.2821939 -0.7572362 -0.2857050 -0.2753157  0.4128962  0.7271264 -0.1475894
1.248000	-22.9780197 -0.9631538  1.8935299  1.0888095  0.1834682  1.4504781 -0.3229015 -0.0400529  0.4145176 -0.1739283  0.1179658 -0.0144559 -0.7567433
1.253333	-23.4425678 -0.6396316  1.9381950  1.6162612  0.0047179  1.4779446 -0.2115853 -0.0282837  0.7843082  0.5653144  0.1219677  0.0549132 -0.1629906
1.258667	-23.6812935 -0.6737244  3.0733967  1.6309683  0.1400119  1.0470045  0.0272419 -0.0892655  0.2522576  0.2852662 -0.0489634 -0.2118344 -0.2945091
1.264000	-23.8352661 -0.8325149  2.0154994  1.0791849  0.1166934  1.3624868 -0.5414751  0.0390097  0.8129418  0.5864054  0.2208276  0.2586098 -0.0481701
1.269333	-23.6888275  0.1489922  1.8488634  1.4180170  0.3165297  1.6764317 -0.5689120 -1.0297729  0.0331285  0.0802991 -0.0946298  0.1809619 -0.0977507
1.274667	-23.4563446  0.7002391  2.0303802  1.4982185  0.5153329  1.6037949 -0.2593665 -0.8664348  0.0890872 -0.2068063 -0.0244433  0.4071532  0.0082469
1.280000	-23.8986359  1.0263771  1.0254643  1.4790763  0.7182820  1.1578810 -0.3135459 -0.6612755  0.4615120  0.4339691  0.2252355 -0.0342019  0.1458827
1.285333	-23.4383545  1.6708077  2.0438378  2.0842543  0.5580782  0.9773090 -0.5810537 -0.7548217 -0.0354291 -0.0073556 -0.3357813 -0.3535901 -0.1563011
1.290667	-22.2297974  1.7970493  1.5511384  2.3475716 -0.0137427  1.0105326 -0.0274034 -0.7442437  0.1220701 -0.0038824  0.2726807 -0.2641234 -0.0348073
1.296000	-23.2858849  1.9432057  1.3640153  2.0524411  0.3301987  0.7252438  0.0456049 -0.3069146  0.0912158 -0.1276842 -0.1903309 -0.1799476 -0.1344062
1.301333	-22.3276501  2.5448980  1.1702335  2.2207062  0.7492628  1.2044200 -0.6063709 -1.0833452  0.1844423  0.1538721 -0.3167602 -0.3818895 -0.1962928
1.306667	-21.6504154  3.1913376  0.3406369  2.2229855  0.6048847  0.6789309 -0.3303883 -0.8183536  0.6300683 -0.1560624  0.0328563 -0.0206571 -0.1818372
1.312000	-22.5389977  3.1180685  0.2510862  1.9228109  0.7979429  0.7949153 -0.2350299 -0.4231111  0.4469941 -0.2980708 -0.3033817 -0.1314642 -0.0843821
1.317333	-21.6963673  3.0910363  0.2120424  2.4368234  1.1016936  0.8171468 -0.6730318 -0.8672664  0.2733676 -0.2214090 -0.3134441 -0.1150496 -0.3808846
1.322667	-21.1091843  3.5450721 -0.1346495  2.1944301  1.0327818  0.6545231 -0.3819637 -0.6720880  0.4153502 -0.3266386 -0.0455391  0.1043460 -0.2619976
1.328000	-22.3097687  3.6517119 -0.1422805  1.8535511  1.0592837  0.5571451 -0.2299633 -0.4357021  0.3615940 -0.4326090 -0.3334068  0.2243708 -0.1519560
1.333333	-21.4634094  3.1941895  0.0291707  2.3766203  1.1729555  0.8012515 -0.5561545 -0.8261936  0.3322525 -0.5919623 -0.2851940 -0.1819018 -0.4077405
1.338667	-21.0579128  3.4302578 -0.0727161  2.4699638  0.8999051  0.5316939 -0.3902175 -0.5420495  0.5107400 -0.3696277 -0.3450370  0.2672023 -0.3213189
1.344000	-22.3614826  3.5260901 -0.1199476  1.8806354  0.8613127  0.6381351 -0.5022833 -0.3764076  0.4956152 -0.4363071 -0.3368791  0.1816912 -0.0564863
1.349333	-22.2521172  3.1406364  0.0965499  2.6800597  1.3515475  0.7326423 -0.7950864 -1.1398926  0.5672672 -0.5205206 -0.2302818  0.1018378 -0.4011333
1.354667	-22.2590714  3.6018152  0.0948398  2.2405510  0.5990445  0.8676834 -0.2573261 -1.0038352  0.5387421  0.0223445 -0.0137009 -0.1799166  0.1151071
1.360000	-23.6160545  2.6807425  0.1125424  2.1629739  1.0289314  0.4718159 -0.5818932 -0.4418386  0.0744549 -0.3067622  0.1069973 -0.0237340  0.1484466
1.365333	-23.5485783  2.9486766  0.8325951  2.1953011  0.3877419  0.2189243 -0.1770406 -0.2335232  0.1617588 -0.2380879  0.0130100 -0.2620208  0.0028228
1.370667	-22.7723713  1.0439136  0.6287391  2.0880520  0.8347923  0.1082503  0.2405887 -0.0557137  0.2221531  0.4014094 -0.1769938 -0.2011901 -0.1264398
1.376000	-23.6088829  0.7456251  1.3205369  1.8392460  0.7572056  0.5517143  0.5425434  0.1995568 -0.2516901  0.0704263 -0.6880409 -0.1636320  0.0664389
1.381333	-22.8782558 -0.4097466  1.7305982  1.9884241  0.5894586  1.1858099  0.1756120 -0.3354176  0.7800885  0.3031936 -0.2383571 -0.3854442 -0.4058442
1.386667	-22.4135284 -0.2425128  2.1984963  1.7109728  0.1116081  0.7665820 -0.1108699 -0.1737068  0.5793407 -0.0565447 -0.3055586  0.0178595 -0.2649994
1.392000	-23.0946579 -1.5094807  2.2507839  1.8563068  0.7163221  1.1425484 -0.3362672 -0.9752450  0.4090760  0.1855657 -0.1668659  0.0597830 -0.5230445
1.397333	-22.8875179 -1.0380206  2.7321126  1.8554556  0.4505964  0.8885348 -0.2991912  0.0688538  0.5567160  0.1997688 -0.2278907 -0.1280836 -0.3962554
1.402667	-23.6044693 -2.2960515  2.1731350  1.1893415  0.6353909  1.2226199  0.1479371  0.1186444  0.5642198  0.3894992  0.3091064  0.7300511 -0.1514186
1.408000	-23.2905388 -1.9988182  2.5827026  1.8085871  0.7081318  1.3411332 -0.3048782  0.1492492  0.0894353  0.1966549  0.0903732 -0.1229740 -0.4176095
1.413333	-23.5063038 -1.7138958  2.7244039  1.4491508  0.2514277  1.0589305 -0.2208090  0.0561911  0.5532786  0.2121812  0.2824934  0.2602872  0.0145273
1.418667	-23.9850121 -2.0202675  2.3862982  1.1684892  1.0812426  1.6768688  0.0080938  0.2690363  0.6231909  0.2894944 -0.5107329 -0.5983098 -0.1467416
1.424000	-24.2330551 -3.1843801  2.1433318  0.9721237  0.7784253  1.5506397  0.4440641  0.1486935  0.0505396  0.2311921  0.3344666  0.1876374  0.1196309
1.429333	-23.2871227 -2.0533895  2.5077882  0.9148459  1.1236141  1.2065741 -0.3449626  0.0317754  0.1174853  0.1995910 -0.0016956 -0.1267843  0.2219123
1.434667	-23.4977264 -1.9981418  2.6576595  1.3068740  1.1336577  1.1136405 -0.0976229  0.2516522  0.0152225 -0.0777928 -0.5565933  0.0379939  0.4569155
1.440000	-23.6647816 -1.8539162  2.6663797  0.8833835  0.9787409  0.6226531 -0.2762368  0.5066497  0.5154130  0.1976878 -0.5123268 -0.1910515  0.3017443
1.445333	-23.6389694 -1.6965904  2.8679996  0.8692839  0.9071684  1.0206594 -0.9349531  0.3793595  0.3752950  0.2641228 -0.4791809 -0.4600330  0.1169562
1.450667	-23.5499687 -2.3518343  2.2987628  0.8855705  0.7627883  0.8962483 -0.8508389  0.4879577  1.0455576  0.3363888 -0.3065503 -0.1159689 -0.2744132
1.456000	-23.8799286 -2.1427000  2.3079243  0.7396885  0.8614633  0.9762458 -0.7614126  0.6386952  0.3107924  0.2346721 -0.4266301 -0.0388042  0.4789585
1.461333	-24.3274460 -2.4102588  2.2048979  0.6145927  0.4959968  1.4703583 -0.3461306  0.5616269  0.5179627  0.7527396 -0.2828767 -0.4016836  0.1808461
1.466667	-23.9306946 -2.4083514  2.1384437  0.6349670  0.5722046  0.8249844 -1.0096931  0.1695623  0.0815009  0.8964645  0.0491093 -0.0270762  0.3733627
1.472000	-24.4298439 -1.8148715  2.2017548  0.5343424  0.6011113  1.2793646 -0.8415694  0.4546057  0.3945050  0.5442408 -0.3815792 -0.5537194  0.3518206
1.477333	-25.5683346 -2.8790271  1.9173888  0.9659021  0.9326661  0.7287481 -1.0670736  0.9887848  1.1228020  0.5448124 -0.5180565 -0.0679801  0.2084578
1.482667	-25.3480206 -2.0569892  2.0168946  2.1534564  1.0063280  0.6375259 -1.6699474 -0.4055901  0.3556101  0.8620660 -0.3459007 -0.2668871  0.5075427
1.488000	-25.5090733 -1.2374139  1.0788032  0.9192895  0.7426270  0.6861756 -0.6959238  0.5594041  0.4718127  0.5309202 -0.2650899 -0.3195983  0.7684199
1.493333	-26.2818089 -0.8176701  1.4555056  1.3009099  0.8318774  0.5611658 -0.8052864  0.2957125  0.3770974  0.0966822 -0.1945439 -0.8754003  0.4550496
1.498667	-26.1703587 -0.4642863  1.5037483  0.6717743  0.9608953  0.6761982 -0.6656973  0.1448254  0.4200215  0.2316370 -0.2498860  0.0970996  0.8218420
1.504000	-24.4934769  1.4522351  2.0645356  1.5920291  1.5005128  0.6968501 -0.6744335  0.3722717  0.5433443  0.3287818 -0.0624344 -0.9330333  0.3756682
1.509333	-20.7710114  2.4006171  1.0299042  1.6567914  1.5427231  0.6220149 -1.0990990 -0.2141526  0.0964528 -0.1323603 -0.0282742 -0.5324854  0.0885586
1.514667	-20.2786503  2.5256581  0.6337721  1.9086058  1.1398448  0.4117337 -0.5422468 -0.2521283 -0.0798931  0.0293335  0.1708205 -0.2726069 -0.0043165
1.520000	-21.6063194  2.2869568  1.1031073  2.1233206  1.2225782  0.6525167 -0.7734659 -0.0489030 -0.0804681 -0.6238698 -0.5428932 -0.8196626  0.4454997
1.525333	-19.9537888  2.4583597  0.5815762  2.2928352  1.3037283  0.2767387 -0.7168963 -0.4371791 -0.0202368 -0.2674541 -0.4027677 -0.4295206 -0.0931309
1.530667	-19.9043980  3.0144935  0.3298442  1.9184802  1.0371594 -0.0528972 -0.4662609 -0.0560063  0.0971920 -0.0769956 -0.1324473 -0.2505059  0.0121167
1.536000	-21.1345310  2.8605876  0.4911096  1.8431065  1.0492936  0.4794882 -0.7853146 -0.2882004 -0.3406758 -0.7995778 -0.4927415 -0.5114391  0.4950882
1.541333	-20.0902634  2.7475879  0.0790343  1.9781396  1.3423678 -0.2456893 -0.9119062 -0.4017415  0.1835172 -0.1727179 -0.3722805 -0.1702079 -0.1084962
1.546667	-20.0373859  3.2051604 -0.0704479  1.7062253  1.0374788 -0.0051262 -0.7175705 -0.2432122  0.1166778  0.0729741 -0.2587012  0.0960698  0.0002814
1.552000	-21.6656723  2.5127730  0.1574326  2.0988100  1.3238509  0.3324454 -0.8543446 -0.5356049 -0.0622472 -0.7298924 -0.7661816 -0.3271052  0.2385256
1.557333	-19.9834938  3.3320255 -0.3260850  2.0349219  0.9673182  0.0391952 -0.6510804 -0.6104687  0.3605629 -0.3008127 -0.3419148  0.0163673 -0.3518866
1.562667	-20.6562347  3.2539053 -0.0840541  1.8970091  0.8368276  0.1091847 -0.7159305 -0.3287609  0.2055572 -0.0059978 -0.0843402  0.0003854 -0.1422451
1.568000	-21.6276989  3.0569038  0.0524421  2.0057738  0.4539222  0.4557922 -0.9686689 -0.2798729  0.2846745 -0.3050157 -0.6164818 -0.4034201 -0.1114503
1.573333	-21.7630157  3.0433996  0.0821367  1.7527009  0.8901477  0.8500739 -0.3782823 -0.7788152  0.0871952 -0.3233391 -0.2919368  0.0757797 -0.4214280
1.578667	-24.0147057  2.9243453 -0.0366525  1.9689854  0.8828926  0.6344250 -0.1749313  0.2152819  0.6934693  0.3120688 -0.0082253 -1.0012279 -0.4339881
1.584000	-23.9262085  3.1728239  0.5252672  1.9882352  1.3285362  0.8618830 -0.8015497 -0.1849937  0.1161838  0.0597462 -0.0907450 -0.3244886  0.1049332
1.589333	-23.9179935  3.6854684  0.4785543  1.8216441  0.5693507  0.7591540 -0.3784919  0.0114964  0.5616870  0.6511549  0.3569554 -0.1859083 -0.3866599
1.594667	-24.5721016  2.9873879  0.8476988  1.9303330  0.6250290  0.8121362 -0.5187552 -0.0601597  0.8571033  0.3349734  0.0445375 -0.4810796 -0.3957998
1.600000	-22.8832493  2.4624822  0.7771098  2.6175747  0.8324948  0.9428732 -0.3506124 -0.6261135  0.4898539 -0.1552482 -0.0611919 -0.3722385  0.0110795
1.605333	-22.8361931  2.8982878  0.3838286  2.0464838  0.6378495  0.5215704 -0.6513450  0.1917113  0.5691152  0.1501743  0.0562775 -0.0401119  0.0338254
1.610667	-22.7300358  3.2519259  0.0738952  2.7162013  1.0828384  0.6034091 -0.8992839 -0.6962972  0.4235489 -0.1581689 -0.3939197 -0.5516101 -0.1462986
1.616000	-20.7912064  3.6076343 -0.4428515  2.8468268  0.8778406  0.1564051 -0.5510399 -0.9249865  0.8087255 -0.4448153  0.3575146 -0.1624036 -0.0024316
1.621333	-22.2618923  3.5232000 -0.1269106  2.5977101  0.8714496 -0.0188143 -0.5800834 -0.7938741  0.9144318 -0.5271537 -0.1508529 -0.3992242  0.1914519
1.626667	-21.0723152  3.1071393 -0.1906067  3.0870972  1.0461608 -0.5013317 -0.8372583 -1.0698003  1.1884217 -0.7626359 -0.0374230 -0.3899583  0.0552022
1.632000	-20.3185577  3.0118413 -0.1672284  2.5616827  0.7646134 -0.6096709 -0.4454916 -0.6458281  0.7586451 -0.3733929  0.3153704 -0.0296713 -0.0157136
1.637333	-22.4195042  3.3161678  0.1742174  2.7097824  0.5671113 -0.3589736 -0.6034279 -0.2351632  0.5782770 -1.1994625 -0.2002051 -0.0504180  0.2002660
1.642667	-20.6445122  2.6671770  0.0479884  2.8313546  0.7017440 -0.9120885 -0.7389994 -0.6112329  0.6639051 -0.7790617  0.3636035  0.0097548 -0.2849445
1.648000	-21.2319717  2.8926539  0.2577347  2.8207254  0.3854090 -1.0480608 -0.6690438 -0.1451456  0.6499310 -0.2471935  0.2745982 -0.0029402 -0.3078929
1.653333	-22.7197647  2.8740885 -0.0319528  2.5632048  0.2101446 -0.8805994 -0.3449695 -0.0098103  0.2240270 -1.2047480  0.3760206  0.0222126 -0.6010690
1.658667	-21.3421555  3.2814367  0.2588952  2.8087406 -0.0810349 -0.9248745 -0.2423627  0.1536508  0.4065467 -0.9397059  0.4736490 -0.0815035 -0.5705310
1.664000	-22.7676888  4.3198318 -0.1161839  2.0594068 -0.0414099 -0.4208614  0.1745501  0.0123951  0.1842341 -0.7402511  0.5887265 -0.0026821 -0.5531427
1.669333	-23.4214249  3.7822275 -0.3173106  1.9322656  0.1756725 -0.1718709 -0.0566127  0.4141333  0.2605833 -1.3032024  0.5069908 -0.0355671 -0.2233365
1.674667	-22.5961876  5.2278881  0.1627995  1.2321208  0.3273543  0.2858241 -0.1004300 -0.0441304  0.1072681 -0.3776379  0.1002237  0.1008036 -0.4985605
1.680000	-23.2959061  4.6352968 -0.3179007  1.5343792  0.3333105 -0.2229720  0.1706805  0.0957614  0.2546211 -0.7092147  0.3005662  0.3093262 -0.4950192
1.685333	-23.4910851  4.6193447 -0.0859675  1.6119016  0.7860988 -0.3107963  0.2679739  0.1151755  0.0675330 -0.8665465  0.3140630 -0.0652870 -0.2234305
1.690667	-22.5999107  5.0647125  0.1174040  1.2346919  0.5916877 -0.1479299  0.3777614 -0.0862364 -0.1361836 -0.1377157  0.1222188  0.1884803 -0.5648199
1.696000	-23.9643936  4.3817387 -0.2623186  1.3687239  0.7771066 -0.4584943  0.3189607  0.4103454  0.4567746 -0.9105126  0.3455844  0.2184032 -0.1856294
1.701333	-23.0038185  4.9102983 -0.1940539  1.5062356  1.1899419 -0.4240968  0.2834227  0.2948041 -0.0276766 -0.7048104  0.1940941  0.1955286 -0.4259353
1.706667	-23.2650032  5.3506103 -0.1294622  1.1955907  0.9026560  0.0176426  0.0844741  0.3637354  0.0678805 -0.5488402  0.2686288  0.3305070 -0.6031559
1.712000	-24.8958015  4.6958418  0.3635232  1.5077964  0.7503871 -0.4706831  0.0582387  0.5830339  0.3429295 -0.5745634  0.5204567  0.3996770 -0.6118854
1.717333	-23.2980003  5.5938797  0.1377017  1.1216826  1.0473651 -0.0937817  0.1728594  0.3104988  0.0431252 -0.5441266  0.2617725 -0.0163881 -0.4156222
1.722667	-24.6172180  5.5680256  0.2848890  1.0812294  0.7118657 -0.0590510  0.3119082  0.4471724  0.2552947 -0.4218417  0.4418005  0.3037522 -0.8535002
1.728000	-24.4915810  5.1008134  0.6052657  1.3850852  0.8273706 -0.3714727  0.3004878  0.3777303 -0.0167308 -0.8879159  0.6122679  0.4020314 -0.4787843
1.733333	-24.0128822  5.9435430  0.3092742  1.2864430  0.8245606 -0.0190364  0.1116571  0.0713036  0.2125052 -0.3692610  0.4667532  0.3481348 -0.4815742
1.738667	-25.8353062  4.7608876  0.6277598  1.4412366  0.5767264 -0.2648467  0.5770559  0.8033803  0.5053072 -0.5039786  0.9692252  0.7352066 -0.5431035
1.744000	-24.7181644  5.4590793  0.7918204  1.4093431  1.0750258 -0.0615857  0.0278556  0.0761133  0.2031860 -0.4154667  0.6157048  0.3970652 -0.3911432
1.749333	-25.3653488  5.3005733  0.8439606  1.2803657  0.8463149  0.1013391  0.0787413  0.2993756  0.3146071  0.0293154  0.5244462  0.1608677 -0.1455549
1.754667	-26.0276070  5.1168437  1.0381403  1.3703241  0.9761710 -0.0412080  0.5809059  0.5174072  0.0219468 -0.4018584  0.6143637  0.4217914 -0.1876221
1.760000	-25.9465752  5.4920535  1.2630318  1.2047580  0.7679240  0.2185099  0.1945844  0.3813653  0.0679072  0.0257435  0.5677062 -0.0665818 -0.2421191
1.765333	-27.2785683  4.8124356  1.2807832  1.6734363  0.8977208 -0.0836251  0.3316462  1.1635473  0.0804929 -0.1945047  0.3990891  0.4300052 -0.4997933
1.770667	-26.8556156  5.1428242  0.8951386  1.5573204  0.8137938  0.2751913  0.1867354  0.0714487 -0.3335900 -0.5041412  0.2701765  0.4271083  0.1591721
1.776000	-28.0211124  4.2829418  0.5944103  1.6845062  0.9649491  0.1386106  0.4677536  0.8343155 -0.0080754 -0.2475259  0.3094853  0.2221476 -0.2719722
1.781333	-27.6079426  4.8573627  1.1521195  1.4264052  0.3342629  0.0294971  0.0602260  0.7455831  0.0855497 -0.4267122  0.3366361  0.3956572  0.0498142
1.786667	-23.6032448  4.8940058  0.8233638  1.0517082 -0.4247059  0.0308473  0.5296185 -0.1768980 -0.2318721 -0.1063275  0.3105382  0.4654088 -0.7165873
1.792000	-23.5622921  4.5442562  0.6061114  0.5312486 -0.6926994  0.4966025  0.0685501 -0.6321840 -0.6556457 -0.8570784  0.3975080  0.3955004 -1.0546292
1.797333	-19.6409912  4.5389080 -0.3453346  0.1757880 -0.0649661 -0.0968145  0.0923245 -0.9220686 -0.2310606 -0.6322815  0.2917542  0.5159841 -0.8326359
1.802667	-20.4840488  4.4888487 -0.5025126  0.0445231 -0.0704229  0.0303698  0.1194980 -0.5808747 -0.2009486 -0.4004785  0.3429371  0.5006102 -0.7818576
1.808000	-20.5192394  4.3475637 -0.1656165  0.1912307 -0.1776159  0.1945611 -0.0823998 -1.2336264 -0.5355833 -0.7812042  0.7560138  0.6802036 -1.2829671
1.813333	-19.1983624  4.5591965 -0.4969306  0.0091470  0.1358310  0.1448449 -0.1422975 -0.7728947  0.0241244 -0.7203590  0.5805806  0.3982124 -1.0838724
1.818667	-21.5637550  4.5829258 -0.2221454 -0.0129802  0.0512133  0.1495502  0.4318118 -0.4624782 -0.0940427 -0.5402341  0.6585404  0.5196524 -1.0090166
1.824000	-20.4541264  4.9235907 -0.8094618  0.2224178 -0.1304013  0.4465401 -0.4091835 -1.3918434  0.1788535 -0.8534949  1.0034519  0.7169143 -1.0536166
1.829333	-20.2179298  4.5632524 -0.1977962  0.2331043  0.1470107  0.2549170  0.4696054 -0.8000873  0.8777184 -0.8156831  0.4574258  0.4406195 -0.7900961
1.834667	-21.5518608  4.6132512 -0.2770024 -0.6936539 -0.3978984  0.5261672  0.3968234 -1.3923401  0.4279159 -0.8696004  1.1326644  0.9184852 -0.9045786
1.840000	-19.9905872  4.7842188 -0.1665770  0.0960691 -0.0402564  0.4245933 -0.0472372 -1.6739953  1.0801289 -0.5329091  0.5260727  0.5736669 -1.0479976
1.845333	-21.2670383  4.8307281 -0.0685104 -0.2313603  0.2880495  0.5393176  0.4276252 -0.8616158  0.9206161 -0.2068610  0.3798134  0.3089808 -0.7740339
1.850667	-21.1611347  4.4067092 -0.1707109 -0.1178198 -0.0959082  0.4512986 -0.5446782 -1.9196330  0.5260401 -0.4721151  0.7836105  0.6187645 -0.9509686
1.856000	-20.0230465  4.7283421  0.1265430  0.1660540  0.0367867  0.5073226  0.0984671 -1.2842426  0.7314010 -0.0118535  0.2343222  0.2953865 -0.9058387
1.861333	-22.0419006  4.4800782  0.2151069  0.0368714  0.0334994  0.4289749 -0.3701386 -0.9982162  0.9955580  0.1114653  0.7906207  0.2472197 -0.6218468
1.866667	-20.4769745  4.7175713 -0.0811758  0.2896304  0.2184660  0.4053587 -0.2986605 -1.7295499  0.8417997 -0.0756402  0.2795036  0.3532419 -0.9679171
1.872000	-20.8660107  4.5699778  0.2831751  0.1821346  0.4290332  0.6893389 -0.0048044 -0.7577968  0.9050901  0.0443516  0.0210820  0.1432633 -0.8269764
1.877333	-21.5352287  4.3320150  0.3412546 -0.0624312  0.3450783  0.5076919 -0.6436732 -1.3737791  0.5052797 -0.0541839  0.4731075  0.5049995 -0.7794161
1.882667	-19.8382034  4.2740960  0.3181461  0.3704814  0.7420436  0.2287768 -0.4715950 -1.0883853  0.6944327 -0.0058725  0.0411593  0.3185001 -0.9246584
1.888000	-21.3709202  4.4760466  0.0470524  0.1257759  1.0167601  0.0244381  0.1498744 -0.4991689  0.6172975  0.2049703  0.3068113  0.0741130 -0.9168969
1.893333	-20.8325653  4.4146862 -0.2069775  0.6976555  1.0748510 -0.2412360 -0.2826147 -1.2622705  0.1758366 -0.2427989  0.2603673 -0.1630794 -0.4321107
1.898667	-20.1317348  4.1895070  0.4221168  0.7745129  0.8496668  0.0696365 -0.0607686 -0.7354705  0.2911860  0.1240495  0.1971958 -0.1183901 -0.5251126
1.904000	-21.5685825  4.5954733  0.5568660  0.2824537  0.5250010  0.2916116  0.1739490 -1.1117748  0.3698061  0.1672433  0.3849625 -0.2919375 -0.6557757
1.909333	-21.1125507  4.2353683  0.7660445  0.8081419  0.9242622  0.1813675  0.2503338 -1.2373677  0.5277596 -0.2271961  0.1077983 -0.1107987 -0.7069806
1.914667	-23.0102768  4.6625147  1.0619556  0.1100738  0.5004878  0.3850235  0.6122975 -1.1100894  0.3852874  0.3707831  0.7219484 -0.4935312 -0.6990789
1.920000	-23.6382504  4.5313544  1.2035888  0.2847457  0.3281747  0.5023932  0.2867365 -0.8813394  0.2505754  0.3653816  0.2897439 -0.1569031 -0.7609662
1.925333	-24.6506195  4.2341762  1.0344448  0.3977492  0.4460848  0.4104767  0.4133480 -0.6996343  0.7840465  0.3065311  0.2336658 -0.1574461 -0.6750615
1.930667	-24.6960735  4.3777857  1.2457294  0.5050974  0.3535748 -0.0391551 -0.0606661 -0.6312129  0.3461646  0.1898982  0.5272815 -0.1448591 -0.5989343
1.936000	-25.0570297  3.7464623  0.7169286  0.7788882  0.9470512  0.4987499  0.6682088 -0.4114385  0.1876907  0.2769443 -0.4702474 -0.5228201 -0.4648710
1.941333	-24.9572067  3.1965921  0.9739086 -0.0664483  0.5415273  0.2011712 -0.3579223 -0.2029743 -0.0541221  0.5592678 -0.0594738 -0.2808863 -0.6632434
1.946667	-23.8580151  4.1216359  1.5187242  0.6295071  0.5651070 -0.0292251  0.1375005 -0.1514429 -0.2508810  0.4444634  0.0418134  0.1227114 -0.5253416
1.952000	-23.2637119  2.9932485  1.3858850  0.6018106  0.7448095  0.8086113  0.1555154 -0.2617756  0.1524853  0.5146325 -0.2775784 -0.0687541 -0.0399581
1.957333	-23.8796005  3.6471138  1.1019666  0.8936920  0.8444344  0.8992255  0.4460211 -1.2236055  0.3741982  0.1554042 -0.0241116 -0.5750663 -1.0638257
1.962667	-20.6325359  3.2322431  0.9761376  1.0247514  1.0305201  0.0681061  0.0388966 -0.7713510  0.2642636  0.1870330 -0.0880688  0.0379274 -0.6304674
1.968000	-22.4029903  3.5480697  1.1584420  0.7409244  0.7865013  0.2343718  0.0791948 -0.9405141  0.2574533  0.1429892 -0.2903182 -0.4602351 -0.6403368
1.973333	-20.0466061  2.4865460  1.1790247  1.2209077  1.0337281  0.2461219 -0.2298651 -1.1719263  0.1185616  0.0895124 -0.2748262 -0.1494065 -0.7494330
1.978667	-20.5668774  2.7396817  1.0478328  1.0015244  0.6916592  0.1387898 -0.1297593 -0.5556498  0.2166401  0.1612206 -0.0210701  0.2558789 -0.1886330
1.984000	-21.6732922  3.1996951  0.6048287  0.9859684  0.6753973  0.6508104  0.1316869 -1.4361823  0.1077994 -0.4605324  0.0090713 -0.5795135 -0.6347122
1.989333	-20.8689690  3.5098343  0.2936399  1.8271263  0.6496058  0.6679583 -0.2005751 -1.2113364  0.8460499 -0.3293331  0.2896014 -0.3515381 -0.3627046
1.994667	-22.9052124  3.6900015  0.7154331  1.1158445  0.4660035  1.4935653  0.3604698 -1.3127477  0.5144393 -0.1102142 -0.2351382 -0.5541806 -0.4400163
2.000000	-24.0098801  2.8582203  0.0248473  1.4249656  0.2500865  0.2332277  0.7530837 -1.3079821  0.5806746  0.6425852  0.0913231  0.2186378 -0.0471103
2.005333	-24.8866119  3.1854858  1.0867554  1.5446628  0.7753120  0.5741715  0.0418093 -1.0056534  0.3358591  0.1405527  0.1498089  0.0464646 -0.4669006
2.010667	-24.8569622  3.6221228  1.0897782  0.9146515  0.4106500  0.5272626  0.2400017 -0.5470206  0.0890903 -0.0724770  0.2225187  0.2280327 -0.3282087
2.016000	-25.3807449  3.8095593  1.1477560  1.1321882  1.3339031  0.7796628 -0.2018201 -1.3981439  0.5877143  0.5586998  0.2102095 -0.0284496 -0.0343654
2.021333	-26.0082035  3.6461582  0.9519615  1.2649283  0.8857107  0.8256334  0.4318125 -0.5176004  0.3816224  0.1679197  0.0451680 -0.0780652 -0.8749660
2.026667	-25.9829597  4.1243534  1.1367211  1.1285981  0.8205514  0.7493210  0.4353352 -1.0412536  0.2770944  0.5874408  0.4369730  0.1304823  0.0805048
2.032000	-26.1795959  3.6614592  1.1900427  1.3551490  1.0807313  0.8536915  0.4105859 -0.7993649  0.7302574  0.6392477  0.6044424 -0.3720472 -0.5530430
2.037333	-26.2957497  3.6780336  1.1664712  1.2772416  0.7757493  0.5734762 -0.0553415 -0.9859030  0.3667939  0.0967727  0.3644818  0.1808487 -0.4225335
2.042667	-26.9758110  3.7775927  1.1859220  1.4337331  0.9944270  0.4584475 -0.0783596 -0.5061442  0.3133051  0.3944959  0.2069048 -0.6857373 -0.1906395
2.048000	-28.5348854  2.5699086  0.5611894  1.2517755  0.9386374  0.8544220 -0.0984867 -0.7672865  0.5079279  0.0889495  0.0143132 -0.0642934 -0.4511600
2.053333	-27.8002682  3.7401142  1.2824266  1.7501541  0.7501169  0.8127000 -0.1163409 -0.6789151  0.1846521  0.5751716  0.2454904 -0.3862103 -0.7556591
2.058667	-27.8718777  3.6724997  1.0709910  1.4261458  0.5708041  0.6832929  0.1063251 -0.5197227  0.4475965  0.6760911  0.2803515 -0.2992990 -0.5596265
2.064000	-29.0531349  2.6626852  0.4655614  0.8950653  0.3843300  0.3116654 -0.1562133 -0.8848861 -0.0416647  0.4877669  0.7862566 -0.1968100 -0.6960188
2.069333	-28.8470078  3.5791857  1.6134672  1.6909685  0.8284445  1.1111869  0.5309434 -0.5950732  0.4521732  0.5537767  0.3196429 -0.7261914 -0.2237470
2.074667	-27.2533665  2.6921549  0.2975380  2.0406399  0.4489406  0.2662131  0.9665198  0.1356328  0.0222307  0.5744184 -0.0660297  0.1481619 -0.2055042
2.080000	-24.6526966  0.4794866  0.3191921  1.7558212  0.2386799 -0.5550646  0.3762589  0.0623309  0.3629467  0.4288821 -0.2735125  0.1540101  0.3610259
2.085333	-25.0042133  0.6723163  0.6628824  1.4925662  1.1871164  1.3024366 -0.3749468 -0.0009966  0.6154294  0.6451083  0.2130343  0.0896675 -0.1782750
2.090667	-26.4363194  1.7875801  1.2830013  2.0376143  0.9469905  0.9372619  0.1225603 -0.8548359  0.2885549  0.7019773  0.0650360 -0.2261325 -0.4507596
2.096000	-23.9739685  4.4041286  0.5985596  1.1154076  0.6244137  1.3450385 -0.2258437 -0.8407066  0.1390247 -0.1993725  0.0616526  0.1967348 -0.7817138
2.101333	-24.1757126  4.4929237  1.1374091  0.9418272  0.3171997  0.8436657  0.7004433 -0.9220982 -0.1008129 -0.1417359  0.5051431  0.1208352 -0.6814631
2.106667	-24.6682549  3.9529710  1.0177031  1.3971889  0.2051556  1.3842397  0.9830019 -1.0722189 -0.7589099 -0.9601929  0.1711136  0.0571561 -0.6891508
2.112000	-22.6597805  4.9213772  0.4756902  0.5933915  0.3975665  0.8327671  0.5427952 -0.6077101 -0.1523687 -0.7413226  0.1209828  0.2142712 -0.4392175
2.117333	-25.0443478  4.5095034  1.0779185  1.1248236  0.6478551  0.6905666  1.1424773 -0.5706075 -0.6999757 -0.8693606  0.3243078  0.4904462 -0.4046569
2.122667	-23.6834927  5.0074921  1.4751041  0.6572721 -0.3136401  1.0195761  0.8527730 -0.5993196  0.2024757 -1.1432880 -0.0062134  0.1451803 -0.4469885
2.128000	-24.6509361  5.0968566  1.2630250  0.1840672 -0.3038825  0.9073979  1.1167440 -0.3705529 -0.1164701 -0.9007234  0.1976333  0.1472466 -0.4089930
2.133333	-24.4756851  5.3179073  2.0079019  0.7128336 -0.7387996  0.4751886  1.0572615 -0.2745860  0.6969657 -1.3661821 -0.2817593 -0.4033602 -0.2338893
2.138667	-24.6424408  5.1942825  1.4722290  0.6624967 -0.6514379  0.1749394  0.9360442 -0.3386303  0.2619116 -0.2715170 -0.0386657 -0.0754829 -0.1420344
2.144000	-24.9609318  5.2317324  1.9928113  0.8855847 -0.8888354  0.1054630  1.0664375 -0.2898262  0.1767786 -0.9107364 -0.1246957 -0.4376775 -0.8815187
2.149333	-24.6576023  5.2719002  1.5328879  1.4515197 -0.3026445 -0.1714852  0.4709249 -0.5556135  0.3757904  0.1281977  0.0516337 -0.2016672 -0.7863139
2.154667	-25.3790550  5.4068317  1.6792200  0.8880352 -0.5952899 -0.0878465  1.0941885 -0.1138526  0.2633265 -0.8429354  0.0097765 -0.1431980 -0.6174150
2.160000	-24.4927063  5.2836885  1.9417968  1.3853189 -0.5306897 -0.2843540  0.5657001 -0.1849407  0.3665346 -0.5371892  0.3710164 -0.2653390 -0.5776584
2.165333	-25.9938889  5.2741375  1.9300485  0.8386568 -0.4601990 -0.3496875  0.3399537 -0.1001351  0.5040975 -0.6464955 -0.0941534 -0.0574595 -0.5982572
2.170667	-25.2014465  5.8972349  2.1389034  1.2866869 -0.5900853 -0.7870678  0.5577831  0.2083060  0.0183233 -0.3882560  0.4150738 -0.4216912 -0.8238481
2.176000	-26.2246437  5.7372150  1.8776791  0.6850230 -0.5362930 -0.2505471  0.2008264  0.3127982  0.1766642 -0.1671308  0.0587765 -0.4189422 -0.3909299
2.181333	-25.1316013  5.6755104  2.3174665  1.1969907 -0.9845159 -0.5550008  0.5901346  0.1502473  0.1147296 -0.6618661  0.3708520 -0.4151735 -0.9738355
2.186667	-26.2831879  5.7826581  1.8273045  0.8056011 -0.6703947 -0.3573790  0.7525775  0.1218563  0.2918878 -0.0894735  0.1959307 -0.2896488 -0.8645276
2.192000	-25.4823303  5.6895399  2.3233230  1.1664449 -1.0779854 -0.2330046  0.5105422  0.1250594  0.4361274 -0.4244688  0.0793728 -0.7639586 -1.0007720
2.197333	-25.1940899  5.7124262  1.6037056  0.9778339 -0.5355735 -0.1523398  0.6201644 -0.1509978  0.4253542 -0.5108525 -0.0682114  0.0005323 -0.7187703
2.202667	-25.9561195  5.6438475  2.5418611  1.2286036 -1.1246724 -0.2986953  0.6244152  0.0559151  0.5130661 -0.4219726 -0.0011461 -0.6718342 -1.1189971
2.208000	-24.5060234  5.8822918  1.5567591  1.0615494 -0.9335331  0.1385328  0.4639871 -0.3663687  0.5282031 -0.5320540  0.0711783 -0.1138670 -0.6758511
2.213333	-25.6624737  5.5337400  1.8736119  0.8581800 -0.7118345 -0.1787045  0.3573785 -0.2124336  0.6216762 -0.7753918 -0.2176539 -0.5160011 -0.6557120
2.218667	-24.3906307  5.9686146  1.7828224  0.8944640 -1.1564854  0.1112403  0.5642216 -0.4018885  0.5232415 -0.5291702 -0.1964635 -0.0469146 -0.9984182
2.224000	-25.9508362  5.5605102  1.8148599  0.6262155 -0.4358820 -0.0924221  0.2385693  0.1365945  0.1283329 -0.9006043 -0.2214570 -0.0723949 -0.3519831
2.229333	-24.6289787  5.9276991  1.7956287  0.8645433 -1.0283399 -0.2402471  0.4260781  0.2122135  0.4952557 -1.1034739 -0.1280078 -0.0028380 -1.1470598
2.234667	-25.2088013  6.0497522  1.1943059  0.1355450 -0.3244705 -0.1621873  0.6027775  0.2526994  0.0374798 -0.6134396 -0.1080968  0.0315995 -0.4366696
2.240000	-24.9589195  5.9214649  1.7251625  0.4915855 -0.5448373  0.0101926  0.2033472  0.3721216  0.3267342 -1.3253965 -0.5334260  0.3615425 -0.7189568
2.245333	-24.6784954  6.2225370  1.1294174  0.0938635 -0.1064715  0.1408195  0.4737329  0.0841192  0.5700001 -0.9116693 -0.1384909  0.4267493 -0.3687098
2.250667	-25.3883209  5.5555782  1.1828126  0.3084142  0.3289212  0.2462502  0.4963486  0.0064210 -0.3400031 -1.5451236 -0.5058084  0.4004059 -0.3691040
2.256000	-24.3601055  6.0639095  0.9647640  0.4555839  0.0958526  0.2570299 -0.0395613  0.2617511  0.3576326 -0.8952143 -0.3462574  0.6652495 -0.1394258
2.261333	-25.5350647  5.8563490  0.8665723  0.1780286  0.1452609  0.5383043 -0.0748024 -0.1215838 -0.1265616 -1.1379603 -0.5717778  0.4544829  0.3494813
2.266667	-24.4925079  6.2712173  1.3013599 -0.2755170  0.5070456  0.2581854 -0.0147700  0.1879114 -0.1605794 -0.6213672 -0.3234862  0.3009413 -0.0629818
2.272000	-25.7498608  6.0014172  1.0098637 -0.2520146  0.4968295  0.6550353 -0.5798111 -0.2260711  0.0035918 -0.6615559 -0.7171212  0.3087831  0.3304163
2.277333	-24.3035812  6.3011470  0.8089671 -0.5181894  0.8491683  0.5059465  0.1129992 -0.6390333  0.3016586 -0.6931949 -0.7562762  0.8077825 -0.2854963
2.282667	-25.0565529  6.3810692  0.7241618 -0.4400632  0.6479312  0.5851594  0.0281966 -0.5709881  0.1104444 -0.1171283 -0.4261395  0.2903218 -0.0457418
2.288000	-24.6599312  5.9700880  0.6007273 -0.3614497  0.7280200  1.1181657  0.0236175 -0.9065630  0.0259181 -0.6094099 -0.3618063  0.4357814  0.0678656
2.293333	-23.9388466  6.0836306  0.6202578 -0.8486168  0.9465185  0.9747478 -0.3594990 -0.3926595  0.3028185 -0.0048990 -0.5452279  0.7061145 -0.0298476
2.298667	-24.5306339  5.2983999  0.2823309 -0.6312277  0.8393301  0.9398853  0.2039022 -0.2898257 -0.4098526 -0.7362565 -0.1626425  0.7385854 -0.0034989
2.304000	-24.0115585  5.9669499  0.6585864 -0.8029069  0.9523644  0.9649913 -0.5448759 -0.6312632  0.6051935 -0.1832328  0.0907034  0.5006003 -0.3772678
2.309333	-25.4325294  5.6354671  0.1526289 -0.7371278  0.5639148  1.0400926  0.1729660 -0.2625828 -0.1853008 -0.5867080 -0.2259452  0.5436857  0.2275705
2.314667	-24.3999844  5.6336651  0.6149806 -0.4816372  0.8813474  0.7522199 -0.1886971 -0.7413138  0.5347185 -0.1234308 -0.0395030  0.6121013 -0.6261263
2.320000	-25.7948322  5.2717214  0.1975813 -0.3704505  0.8332941  0.6592971 -0.3149543 -0.6881342  0.2437407 -0.4517997 -0.1497990  0.4947825  0.0339477
2.325333	-24.0508766  4.9034815 -0.3979646 -0.3971646  1.0372816  1.0976228 -0.5641229 -0.7655286  1.2075999 -0.4237984 -0.0997350  0.4477111 -0.6452062
2.330667	-26.4106636  4.8056555  0.4922744 -0.1579568  1.1795487  0.9608218 -0.6368196 -0.7101454  0.1979747 -0.3703055  0.2589102  0.6050334 -0.3583623
2.336000	-26.9523087  4.5758190  0.3585501  0.6045336  1.1816754  0.7918115 -0.4563804 -0.3240080  0.5380955 -0.4800231 -0.0039182  0.7962230 -0.7481353
2.341333	-27.0654297  4.6024508  0.1718602 -0.3008590  0.9070814  0.8434811 -0.4182632 -0.4579144  0.6294820 -0.5544929  0.0670317  0.9904008 -0.3359106
2.346667	-27.3970490  4.6853542  0.0924284  0.2495381  0.8143466  1.4376453  0.0218220 -0.0341015  0.6565053 -0.6498693 -0.0856670  0.3957167 -0.2728255
2.352000	-27.1995220  4.1731205 -0.4299433 -0.1099399  0.4717714  0.7694066 -0.0841572 -0.1478010  0.3359914 -0.5839956  0.1743419  0.5216438 -0.3685405
2.357333	-27.4597340  4.2434640 -0.2030654  0.1852691  1.3511300  1.3560258  0.1957955 -0.3638298  0.2185215 -0.5899884  0.1123896  0.6205822 -0.3644223
2.362667	-27.8341236  4.2278390 -0.5438572 -0.0053126  0.5668868  0.7635541  0.1531043 -0.0727168  0.4444909 -0.5308700 -0.0038859  0.2240783 -0.3413427
2.368000	-28.3503304  3.7877302  0.1548775  0.2770284  1.3127093  1.3517489 -0.0068521 -0.1289563  0.5550414 -0.5211334  0.0091816  0.5588030 -0.5217588
2.373333	-28.5739079  3.8079519 -0.5356473  0.3948642  1.1825573  1.3980535  0.1506183 -0.4596459  0.5477368 -0.2540091  0.3798501  1.0139173  0.1351763
2.378667	-28.6254272  4.0520134 -0.1831271  0.0069165  0.6266499  1.1654420 -0.1879771 -0.5905151  0.8087815 -0.2325241  0.3462230  0.4252380 -0.3415512
2.384000	-28.7247677  3.6759133 -0.2007762 -0.1599677  0.4765793  0.5908160  0.3039613  0.3229447  0.7187290 -0.2017899  0.1837782  0.8557383 -0.1318390
2.389333	-29.3625202  3.5139441  0.0203187  0.1001177  0.4432293  1.1008854  0.7277176 -0.1388083  0.3737611  0.3410802  0.2283176  0.4407569 -0.6414642
2.394667	-29.8367100  3.4063182  0.3877656 -0.0197806  0.2475526  1.2391610  0.5271277  0.0174230  0.6272330  0.1596233 -0.0074509  0.1375978 -0.3936441
2.400000	-30.0786362  3.1347351  0.1442175  0.6722658  0.3412524  1.2888980  0.1913834 -0.2797211  0.6397376  0.3700809  0.4200804  0.5293678 -0.3425682
2.405333	-30.3692856  3.3046942  0.7593979  0.7285538  0.9385551  0.8146307  0.1629093 -0.1744315  0.5807905  0.7557335  0.2343689 -0.1827770 -0.7636702
2.410667	-30.3219948  3.1703615  0.1621198  0.0571451  0.4489073  1.1206867  0.5168767 -0.4256897  0.4811864  0.4225325  0.2346239  0.1915106  0.0587277
2.416000	-30.0483322  2.9037886  0.6572895  0.4778787  0.5497043  1.4183381  0.8005018  0.2641342  0.3534584 -0.3091049 -0.0884999 -0.0259464 -0.6205003
2.421333	-31.0226784  2.5216608  0.6092576  0.1467049  0.5732499  1.0823972  0.3544755 -0.2766798  0.5271628  0.5221557  0.4407966  0.2572355 -0.6736661
2.426667	-31.1186008  3.1813745  0.6437548  0.2977784  0.8304353  0.7744532  0.2491016  0.3379802  0.2313616 -0.1521009  0.0590639 -0.0153433 -0.4415929
2.432000	-30.9466686  2.7924383 -0.0281038  0.5127480  0.7669373  1.0081877  0.4794717  0.3250717  0.5497489  0.0415416  0.2760506  0.2597455 -0.1577766
2.437333	-31.1934452  2.8016191  0.0567174  0.7709771  1.0638725  1.3159049  1.1864095  0.3946006  0.5651724  0.0459924 -0.2586771 -0.2873865 -0.4017689
2.442667	-31.3056068  2.5235126 -0.0742793  0.5865462  1.3563826  1.2889433  0.7182279  0.3794949  0.8043537  0.4036577 -0.0225374  0.3018022 -0.0723397
2.448000	-31.5240192  3.6506894  1.0340979  0.4188563  1.0142677  0.9693090  0.4971743 -0.6483964  0.0616063  0.0944353 -0.1937887  0.2377074  0.3948991
2.453333	-32.4784012  2.6425114  0.3633491  0.2161101  0.7652897  1.0179313  0.5698781  0.1954463  0.3113182  0.3880963  0.1754688  0.8694071  0.5161103
2.458667	-31.1058445  3.2247577  0.7099839  0.4530753  0.6184520  0.7243805  0.7209430 -0.3325872  0.3800724  0.2691073  0.2610605  0.5881507 -0.0910578
2.464000	-31.5323563  2.8259335  0.4787503  0.3875414  0.3682206  0.7654923  0.9078517  0.2030586  0.5594842  0.0753354  0.0575444  0.3743235 -0.2671955
2.469333	-31.7345772  2.1844018  0.4454084  1.0004346  0.9885743  1.0756054  0.4634347 -0.4593645  0.0291281  0.1060750 -0.0675311  0.2612340  0.0010452
2.474667	-31.0014992  2.4898834  0.7282666  1.5140519  0.8794771  0.6077369 -0.1670012 -0.1174248  0.6041634  0.1963819 -0.3216656  0.1525226 -0.0283297
2.480000	-31.7061272  2.4359217  0.7400429  0.3085036 -0.0166155  0.7748725  0.1172447 -0.3070193  0.4623713  0.0396301  0.0093993 -0.2259209 -0.1985502
2.485333	-30.7874718  2.5598431  0.0695299  0.7229105  0.5053877  0.1782313  0.3078804  0.3836669  0.4754100  0.2117198 -0.1581937  0.4340675 -0.1618164
2.490667	-32.6731949  2.3975229  0.2131866  0.4612842  0.3917545  0.2451566 -0.3524656 -0.1989123  0.2127571 -0.3299116 -0.0375770  0.1369264 -0.0494821
2.496000	-32.4772339  1.6741405  0.2716541  0.6335657  0.0116148  0.3963800  0.1283221  0.0685514  0.5344932  0.1953911  0.0560591  0.3200390 -0.5396495
2.501333	-31.5903530  1.7291389  0.7840284  0.9799935  0.3679568  0.2406990 -0.0026307 -0.7506725  0.5824596 -0.1045691 -0.4872295  0.1381532 -0.2246196
2.506667	-34.6585083  1.1869893  0.6605789  1.0048338  0.7889610  0.7618209  0.6254535 -0.6592135  0.0021735 -0.0802656  0.4793465  0.6607584  0.0165249
2.512000	-34.1142540  1.6611795  0.9205433  0.5163827  0.1697625  0.2927831  0.3877783  0.1821804  0.0784914  0.3484324  0.0806563  0.2158744  0.0917709
2.517333	-33.6428146  1.4731035  0.5720646  0.7227035 -0.0521622  0.1604748  0.2915378  0.1225802  0.6174420  0.3129959  0.1483115  0.4829898  0.1250339
2.522667	-32.2081680  1.4212024  0.2878673  0.5486755  0.1263767  0.6672099 -0.0293012  0.2209441  1.1663141  0.4327826 -0.1077651  0.4029267 -0.2414254
2.528000	-31.9856567  1.5640432  0.9523473  0.9506337 -0.0023525  0.2928205  0.4943862  0.2329668 -0.0360979  0.2725053 -0.0547475  0.4390368 -0.1749964
2.533333	-33.7490578  1.5108672  0.4964944  1.0893192  0.4755549  0.6764368  0.2168846  0.2556715  0.3160319  0.3538138 -0.1738417 -0.0067807  0.0740457
2.538667	-33.0277863  1.8030262  1.1094868  0.8896332  0.0600163  0.1824914  0.6189599 -0.1379714  0.2831593  0.1031365 -0.3646418  0.4508686 -0.1196116
2.544000	-32.8325462  1.5426481  0.5593756  0.5578955  0.1628911  0.7791734 -0.1105547 -0.1824167  0.4869885 -0.0102223  0.1298340  0.3401921 -0.3164907
2.549333	-33.3563461  1.9834701  0.9614432  0.4649679 -0.3026137  0.3682301  0.0916147 -0.3155248  0.4216826  0.2170848 -0.0257343  0.2285473 -0.1268864
2.554667	-33.6529160  1.9381533  0.1057458  0.5432507 -0.1699756 -0.0794649  0.3431754 -0.2011211  0.2864802  0.2403836 -0.1482968  0.3118818 -0.1522611
2.560000	-33.1127472  1.3888972  0.6075083  0.5900913  0.4485568  0.6423575  0.4942040 -0.0032089 -0.1575444  0.0275865 -0.1679434  0.5630710 -0.2137009
2.565333	-33.9311714  1.6972873  1.3292146  1.4853046 -0.2614701 -0.1957747 -0.0615144  0.1210406  0.7545700 -0.3942204 -0.2196330  0.0787406  0.2917852
2.570667	-34.3593445  1.1498281  0.1205649  0.3960410 -0.0066218  0.8448269  0.2989941  0.1928227  0.3251491 -0.0258487 -0.2536396  0.0095049 -0.3201447
2.576000	-33.6141357  1.7148205  0.5705162  0.5171537  0.0814641  0.1464766  0.1239052 -0.0141990  0.3185811 -0.0243942 -0.1395303  0.1466432 -0.5995080
2.581333	-33.1376686  1.8213542  0.5977630  0.8323570  0.5022161  0.0085503  0.3297091 -0.1679656  0.5277048 -0.1765746 -0.2496392  0.7513646  0.1359878
2.586667	-32.9640121  1.7367965  0.3571046  0.5196070 -0.1828636  0.4083802 -0.2658696 -0.4181477  0.1845832 -0.1979496 -0.1043304  0.6602767  0.4055122
2.592000	-33.5759735  2.1053748  0.5339441  0.4431627  0.7668734  0.4822484 -0.1658821  0.1701162  0.4536805 -0.1370182  0.1330452  0.2163917  0.0566453
2.597333	-33.0919495  2.1480646  0.5032222  0.0150023  0.1271063  0.5425478 -0.5338821 -0.3282290  0.3484378 -0.0352020  0.2494216  0.5176066 -0.3256621
2.602667	-34.5277786  1.3174974  0.8406776  0.9984421  0.7149942  1.3333228  0.5643425 -0.0447085 -0.0437350 -0.2391484 -0.1975822  0.0354073  0.0464029
2.608000	-33.6099396  1.4000137  0.1956186  0.5203023  0.4641896  0.7484556  0.3634071 -0.3026280  0.3595550 -0.1590683 -0.0089529  0.4447807  0.3900894
2.613333	-33.5814362  1.7976530  0.4016133 -0.1856246  0.1430122 -0.0473201  0.1815462  0.3416101  0.6759048  0.0129035  0.0427436  0.5750841  0.0818777
2.618667	-35.5174751  1.0588903  0.4567050 -0.0628554  0.1641669 -0.0903639  0.0837259  0.3283318  0.4277172 -0.1801485  0.1264112  0.2675962 -0.0531768
2.624000	-34.4573593  1.3487016  0.8616521  0.1602610  0.0706504  0.2536823  0.0597954 -0.1211194  0.5626745  0.3456829  0.0321518  0.0560191 -0.3404939
2.629333	-35.1346207  1.5954622  0.3440005  0.4670531 -0.0902566 -0.0582451  0.7038527  0.3001117  0.1311932  0.3076117  0.3622564 -0.4045275 -0.4723601
2.634667	-35.6350174  0.6000552 -0.0041879  0.4072373  0.8377075  0.6519721 -0.3618894 -0.0376092  0.1061387  0.3835919 -0.2536373  0.0836920  0.2843207
2.640000	-35.3289719  1.1867620  1.1600199  0.4461827  0.7719367  1.3407629  0.4419212 -0.2933972 -0.0430491  0.1725278 -0.3178649  0.1275926  0.2300346
2.645333	-37.1037254  0.9494027  0.1980369 -0.5184171  0.1108256  0.4711878  0.7968230  0.5229491  0.1711583 -0.0990952  0.3905973 -0.1296923 -0.2881346
2.650667	-35.5748367  1.3621448  0.5601944  0.5022976  0.1138226  0.0716782  0.0707326 -0.0890628  0.4972084 -0.2644352 -0.0404241 -0.0824467 -0.1519661
2.656000	-34.5898705  0.8062327  1.0392073 -0.2093064  0.4345675 -0.1644203  0.2316747  0.1977313 -0.0096006  0.0997872 -0.0767759  0.3236479 -0.0126926
2.661333	-34.0159760  0.2568018  0.9713390 -0.1257809  0.8791939  0.3439558  0.4314141  0.2091291  0.1938233 -0.1057626 -0.4849434 -0.0139570 -0.3378232
2.666667	-33.6807098  1.1867489  0.5750469  0.3412817  0.3256828 -0.3845877 -0.1318550 -0.1857878  0.0286300  0.2893068 -0.0382036  0.3761740  0.3457576
2.672000	-34.6391525  1.0998178  0.5500765 -0.0186932  0.2493013  0.1796742  0.2089362 -0.0139044 -0.0158095  0.1023352 -0.0823795  0.2774388  0.0336616
2.677333	-36.8464241  0.6303288  0.2996151  0.1688505  0.3184008  0.3024664  0.0410261 -0.0735967  0.1076720  0.0634899  0.0172024  0.2185704 -0.0628241
2.682667	-35.3182907  1.2231731  0.5301301 -0.1992804  0.3082383 -0.0064310 -0.3426929 -0.5976576  0.1183476 -0.1750124 -0.2531501  0.0246737 -0.2591156
2.688000	-34.4585571  2.0894260  0.8230339  0.4921752  0.0514746  0.2242572 -0.0145397 -0.2327070  0.2864172 -0.0976024  0.3056396  0.2954327 -0.1791388
2.693333	-34.6125374  1.5438684  0.3570413  0.1914623  0.1102121  0.2656060  0.3485460 -0.2866610 -0.0163255 -0.4095794  0.1708864 -0.0284339 -0.3928857
2.698667	-34.1038284  0.8196154  0.2294278 -0.1264291  0.1839989  0.3336874 -0.0644670 -0.1481540  0.0127914  0.4803311  0.1532043 -0.3316231 -0.1144953
2.704000	-34.2985611  1.3284260  0.4188572  0.0878899 -0.0753339  0.2552812  0.0709548 -0.3447159  0.3084545  0.5301332  0.2727578  0.1143135 -0.1111088
2.709333	-36.5032883  1.1646850  0.5183558  0.1655987  0.0366326  0.1207648  0.2173605  0.1572554  0.4944739  0.1596458  0.1380136 -0.1571344  0.0568969
2.714667	-35.3775787  0.8305514  0.9814678  0.5556318  0.0202207  0.4980056  0.2882748 -0.2286771 -0.3975463 -0.0034838 -0.2271987  0.0476736  0.2472224
2.720000	-35.5506096  0.9648007  0.6563039 -0.0688826 -0.0459083  0.2284950  0.0693831 -0.3111634  0.2431316  0.2095596 -0.3984441  0.2059381 -0.0198886
2.725333	-34.1105804  1.3623929  1.3981487  0.7765152 -0.2821681 -0.2250302 -0.3996019  0.2983509  0.4528420  0.0972399 -0.2798589  0.4224827 -0.1713425
2.730667	-34.6872444  1.3774086  1.1635126  0.7787421  0.0108097  0.9783831 -0.1225710 -0.4188407  0.3813822  0.3167597 -0.4138401  0.1752923  0.1090173
2.736000	-34.8602829  0.5065643  0.4862183  0.7663605  0.6950460  1.0262899 -0.3902659 -0.4599474  0.3367264 -0.2023062 -0.6558176  0.0837330 -0.3312565
2.741333	-35.8222847  1.2933186 -0.0656477  0.6779479  0.7519835  0.3260566  0.1815953 -0.3025391  0.0650549 -0.1376166  0.0436860  0.1550685  0.1616279
2.746667	-36.0118828  0.5037960  0.2891494  0.3413735 -0.0451780 -0.0773689 -0.4000411 -0.0544424  0.1364634  0.2201799 -0.1014578 -0.1495925 -0.2575392
2.752000	-34.5412865  0.8052186  0.0857125  0.6804373 -0.2441794  0.6388093  0.6585259 -0.3844151  0.3066192  0.0127407 -0.1874863  0.1792847 -0.2583255
2.757333	-32.2108383  0.0884746  1.1601911  1.1352254 -1.0666599  0.6668558  0.4512830 -0.8857665  0.2604518 -0.2583828 -1.0300087  0.1586657 -0.1839856
2.762667	-34.4607658  0.0795947  0.5426234  0.8289636 -0.1548961  0.8464468  0.8646049 -0.6817650  0.4386241 -0.4786143 -0.7309382  0.6129425 -0.0291766
2.768000	-33.6860504  0.2206411  0.3102007  0.4129810 -0.4747893  0.3245424  0.1707859 -0.7203965  0.3475406  0.1286519  0.0548946  0.5016561 -0.1179317
2.773333	-34.7557182  0.9751598  0.8373020  0.9609367 -0.7240468  0.1034075  0.6757822 -0.1358650  0.0127373 -0.3258033 -0.1677352  0.1972936 -0.0028306
2.778667	-36.2386360  0.5664860  0.7943323  0.7688894 -0.1156590  0.4377207  0.5736189 -0.5438056  0.6328936 -0.2596391 -0.2432638  0.6483535  0.2885813
2.784000	-37.3399162  0.6461743  0.1242484  0.4667022 -0.1035541 -0.2295629  0.1130533 -0.4013500  0.0221069 -0.2242757  0.0529422  0.2000839  0.0281037
2.789333	-36.5347519  1.3567827  0.7732164  0.0047969 -0.2720968  0.7743898  0.0286651 -0.0645881  0.0732439  0.4470904  0.2815564  0.1049827 -0.0106137
2.794667	-34.5510826  0.7335604  0.1432005  0.2427475  0.0298025  0.0029844 -0.4305077 -0.9776053  0.2875228  0.2827622 -0.4102890  0.0900109 -0.3702084
2.800000	-34.0372658  0.9971646  0.5362177  0.2106134  0.0134821  0.6705222  0.1973763 -0.3046936  0.2138472  0.0102575 -0.1232421  0.5449442 -0.2302095
2.805333	-34.1767426  1.1571580  0.4797039  0.3433070  0.3831755  0.6359776  0.2420673  0.0014141  0.0801356  0.1576653  0.0652065  0.1856670 -0.3053422
2.810667	-33.9929962  1.2163410  0.2329961  0.7379529  0.5221021  0.6299654  0.3998508 -0.1017155 -0.0364003  0.1310889 -0.1329478  0.1599761  0.5983758
2.816000	-34.9071007  1.0169958  0.9034005  0.3157744  0.3346509  0.3437530  0.2665281 -0.1580988  0.7710304  0.4549569 -0.3114364 -0.2088841 -0.4172714
2.821333	-36.4384842  0.6835623  0.4088463 -0.0528317  0.2425566  0.6233793  0.4843216  0.2920850  0.3080018  0.6418171  0.0288055  0.1995245 -0.0721511
2.826667	-40.7652969  0.3414282  0.1703980  0.0869321 -0.0479355 -0.1026080  0.0605388  0.1534657  0.1039307  0.0699298  0.1355180  0.2122444  0.2717855
2.832000	-35.2207527  1.6039860  1.3752797  0.8242914  0.1898516  0.2403285  0.2264404 -0.2551730 -0.1650610 -0.2630275 -0.2645159  0.1469644  0.0220822
2.837333	-34.7833290  1.3032175  0.7893717  0.7011819  0.4619228  0.4238248 -0.2453218 -0.4692080  0.2251906  0.0740705  0.0576082  0.0443593 -0.3550330
2.842667	-34.0867958  1.2877216  0.6424416  0.8149978  0.2087243  0.5123904  0.5051599 -0.3708853 -0.1595340  0.0320239 -0.1720084 -0.0268325 -0.2133775
2.848000	-35.0930138  0.8452632  0.6837547  0.9071519 -0.0532059  0.2850825  0.8001456 -0.0972180  0.2472982  0.2754377 -0.2945439  0.0540407  0.5501800
2.853333	-34.9164085  1.7910405  1.2380600  0.5861409 -0.1507520 -0.1700673  0.4711342  0.7010669  0.1232216  0.0326626  0.0404692 -0.1074997 -0.0360575
2.858667	-36.1967773  1.2022741  0.9286051  0.2629132 -0.1670817  0.1914140 -0.2066040  0.0234253 -0.4589641 -0.3373289 -0.2004306 -0.0004719 -0.1172969
2.864000	-35.4564590  1.1129706  0.3954528  0.6456640  0.3102420  0.1737873  0.1371565  0.1277646  0.5515771  0.2989798 -0.0520055 -0.0789771 -0.1041431
2.869333	-34.2950897  1.6214283  0.6695061  0.3033891  0.1370332  0.3705946  0.5700989  0.1452023  0.4000645  0.3689879 -0.1069910 -0.0841911  0.0750953
2.874667	-34.6008987  1.1545280  0.7278839  0.2456802  0.0805410 -0.0842067 -0.2104692  0.0422646 -0.1499743  0.7825133  0.2681097 -0.4259528 -0.1211560
2.880000	-34.5623016  0.7392431  0.3008898  0.7055057  0.2528391  0.5781937  0.3321934  0.0606171  0.4322956  0.6384338 -0.2602433 -0.0128061 -0.0512731
2.885333	-34.1559258  1.5336096  0.6057175  0.4063689  0.1188295  0.1969292 -0.0232439  0.2350155  0.5013871  0.7744133  0.1358559 -0.1448760 -0.2520751
2.890667	-35.0435524  0.6998996  0.4166927  0.0060696 -0.2947090 -0.1982163 -0.4813275  0.2461001  0.0901499  0.0364416 -0.0660843  0.0822889  0.3179651
2.896000	-33.6695976  1.8331213  0.4873596  0.1595062 -0.1349654  0.0191075  0.0672617  0.0644814  0.2114439  0.2114767  0.4273030  0.2920381 -0.0932841
2.901333	-34.2762146  1.4306265  0.5332782  0.6714706  0.5606425  0.5116947  0.1805859  0.1971787  0.4102473 -0.3902239  0.1225184  0.0963696 -0.1662575
2.906667	-35.0601120  0.8744885  0.7161424  0.2501402 -0.4970605  0.4914166  0.4324598  0.2518240  0.6204038  0.5771264  0.2883070 -0.2353636 -0.1834329
2.912000	-35.9651299  1.5317032  1.5789598  0.7070185 -0.1184940  0.0575731 -0.1927695  0.0736084  0.1439483  0.5278100 -0.0154643 -0.0597582 -0.1047077
2.917333	-36.0999832  1.0613804  0.7862457  0.3596210  0.2729120  0.3685821 -0.5302405  0.1528748  0.5536621  0.2335336 -0.0233440  0.0045822 -0.4150394
2.922667	-35.1699562  0.8589537  0.5608094 -0.1442586  0.0223509  0.4136922  0.2872496  0.2535242 -0.3732431  0.0927290 -0.3866428  0.1450636 -0.0235952
2.928000	-36.1913528  0.5604502  0.4348775  0.6990680  0.5166436  0.7885854  0.5633473  0.0228859  0.0345891 -0.1181855 -0.7784411 -0.3848510 -0.3779254
2.933333	-36.7885284  0.6655592  0.7516720  0.5392624  0.5085495  0.2137670  0.3654852  0.3782572 -0.0161557 -0.2640466  0.0754558  0.3391895 -0.4592175
2.938667	-35.5488167  1.0383387  0.2637413  0.4154955 -0.1321597  0.7308145  0.2007747  0.0175235  0.2796986  0.3046540  0.0758219  0.2834060 -0.0549785
2.944000	-35.6228218  0.9441187  1.1815364  0.6594923 -0.1195446 -0.2325599  0.3400936  0.7217183  0.6297615  0.0279676  0.3026034  0.3193417 -0.0177968
2.949333	-35.6490021  0.7609851  1.0651120  0.4253182 -0.3284388 -0.0741836  0.2643852  0.0638902  0.4854224  0.0647694  0.0281031  0.4243312 -0.1798476
2.954667	-35.8101387  0.8487664  0.6587348  0.2466755  0.1287272  0.6773323  0.6745558  0.6157740  0.5653274 -0.2262049  0.0040209 -0.1059352 -0.1834810
2.960000	-35.2798386  1.1417532  0.8476511  1.0943857  0.1189686  0.3778037  0.2582760 -0.1325489  0.1508820  0.2824221 -0.0457425 -0.1728162 -0.3534504
2.965333	-34.4633102  1.1939707  1.0001881  0.6558964  0.0593359  0.1576206 -0.0122719 -0.2962674  0.1920393  0.6389919  0.3601986 -0.3425993 -0.2202892
2.970667	-35.2732162  0.9164501  0.7802376  0.5817539  0.4118605  0.3703397  0.3147917  0.0091515  0.2261684  0.2073983  0.1691228  0.1011444  0.3481129
2.976000	-36.2329597  0.3397082  0.8300018  0.3978269 -0.0080978  0.2327523  0.4661055  0.3849947  0.3811481  0.2170758  0.3602384  0.1299397 -0.6592466
2.981333	-35.5442619  0.2463845  0.4237334  0.3077540  0.3152987  0.3843152 -0.1082654 -0.0585929  0.4135246  0.1509649 -0.2216878  0.2822409  0.1278452
2.986667	-35.7873955  1.1005837  0.5625087 -0.1406494  0.2877643  0.5802591 -0.3281651 -0.1196708  0.4801645  0.8983358  0.0883285  0.5133623  0.4612910
2.992000	-35.8320236  0.7788161  0.3350675  0.1415368  0.1781222  0.4664019  0.2740765  0.0090480  0.1750410 -0.1394534  0.1056932 -0.1428512  0.1913645
2.997333	-35.6674309  0.6226120  0.3599516  0.3181863  0.0601211  0.0211480 -0.0791044 -0.5922965 -0.0337074  0.0921685 -0.3695319 -0.1169765  0.0697569
3.002667	-35.6496811  0.0627483  0.0481757  0.6054066  0.5654274  0.9090631  0.1332030  0.1716959  0.1361301 -0.0907042  0.1352177  0.3872905  0.4987048
3.008000	-37.3057785  1.4562535  1.0165709  0.4076435 -0.0216789  0.1955959  0.0845261 -0.0726207 -0.1714847  0.5080073  0.1824409  0.3123885 -0.0634159
3.013333	-35.7809448  0.6809008  0.2679586  0.1445808  0.4822561  0.3405522 -0.1151166  0.2589855 -0.4011700 -0.2975674 -0.1448514  0.0536751  0.1928838
3.018667	-35.2039337  0.9797963  0.6022668  0.1370434  0.0249651  0.1995319 -0.0134053  0.1103522  0.2197263  0.1481631 -0.0973243  0.2267351 -0.3689098
3.024000	-37.1539536  0.5296870  0.2769779  0.8087730  0.1988010 -0.0522632  0.0600243 -0.3041964 -0.1358454  0.0602202 -0.2248455 -0.0146717  0.0492004
3.029333	-35.8131676  0.6366991  0.9144309  0.7347093  0.3711311 -0.3449551 -0.2087679  0.0336967  0.1889105  0.2673434  0.1706891  0.2782054 -0.0353088
3.034667	-35.6366730  0.4516467  0.3153743  0.2135012  0.1636094  0.0681337 -0.0090833  0.1459043  0.2454467  0.1649286  0.1225257  0.1591154 -0.0621698
3.040000	-36.4878883  0.4362817  0.0961141  0.4513882  0.6997154  0.5699744  1.1664486  0.2074472 -0.1437275  0.2334404  0.2368908  0.5065801  0.2507478
3.045333	-36.8012772  0.2877710  0.6654647  0.6799841  0.0644377  0.5124513 -0.0480204  0.3392185  0.7622504  0.5224646 -0.1927856  0.5004556  0.3004535
3.050667	-35.7599449  0.5291258  0.0535256  0.2495909 -0.0105423  0.5038510 -0.0489483  0.0600303  0.5569990  0.4436083  0.1474178  0.4144044 -0.0082690
3.056000	-36.4103775  0.2343947  0.5547631  0.3696989  0.1090961  0.3801360  0.2369633  0.0372406  0.2699013 -0.1246955  0.4808424  0.5711932  0.4211791
3.061333	-36.1850967  0.4562407  0.0887292  0.1557996  0.2112806  0.9040383  0.5747361  0.6092408  0.4325314  0.1019038  0.3871952  0.0612513 -0.0441453
3.066667	-36.6205101 -0.2389058  0.3072696  0.0177830  0.1005262  0.3218195  0.2563572 -0.5290363 -0.5802531 -0.4767516  0.5070827  0.3985944  0.4290531
3.072000	-35.9712601  0.8678833 -0.1573498 -0.2355746  0.5163825  0.4239497  0.6361585  0.4209852  0.0326154  0.1058620  0.0827650  0.3738883  0.2058629
3.077333	-35.9481239  1.1398154  0.7820456  0.1248671  0.0721886  0.7551227  0.0669155  0.1947372 -0.0688243  0.3742077  0.6376143 -0.0393535  0.0197906
3.082667	-35.5747719  0.4261378  0.2969653  0.2743158  0.2957576  0.3425808  0.6416688  0.1339936 -0.0906439  0.0175532 -0.0315734 -0.0099454 -0.0837606
3.088000	-36.1339264  0.0731010  0.5608183  0.4072335 -0.1329874  0.3475941  0.6850600  0.4678963  0.3514557 -0.1532249  0.0269055  0.0046934  0.4489218
3.093333	-37.8049316  0.5732199  0.8725778  0.6953562  0.3285263 -0.0870160  0.2096453 -0.1310411  0.9025390  0.5490296 -0.1008213 -0.0459585  0.0036646
3.098667	-35.9533195  0.6517569 -0.0290982 -0.3760846 -0.0431670  0.3956991 -0.0409288  0.1631268  0.0419278  0.5345608  0.5168017  0.1414210  0.3136520
3.104000	-35.7282829  0.6201474 -0.0504797 -0.3138662  0.2702418  0.5848301  0.1863117 -0.2316135  0.2992916  0.6473923 -0.3636470  0.3314344  0.1935979
3.109333	-35.8346291  0.3123007  0.5441713  0.7728908  0.4125345 -0.2709047 -0.1113534  0.1665824  0.6861372  1.0223442  0.0436434  0.0156924 -0.0576774
3.114667	-36.8800163  0.5054435  0.4828603  0.4451467  0.9061331  0.0051736 -0.0181322 -0.0682377 -0.3636622  0.1098267  0.2274390  0.4577149  0.1066442
3.120000	-35.4911690  0.5518508  0.6221960  0.4301470  0.2062639  0.4442842 -0.1308231  0.1505779 -0.2512748 -0.1286085  0.1398135  0.2281574  0.2442564
3.125333	-35.7586250  0.1728917  0.9575775  0.9067864  0.5400848 -0.1018788 -0.0655828 -0.2668383  0.1131458  0.6037083  0.2213199  0.3428819  0.3346443
3.130667	-37.7374573  0.2776911  0.5735893  0.8545509  0.7708801  0.4940440  0.5347447 -0.1835273 -0.3746135  0.5009019  0.2115414 -0.1417562  0.2432621
3.136000	-35.8988495  0.2430460 -0.0901441  0.2176517  0.0470071  0.0849338 -0.3181806 -0.4336159 -0.3228848  0.7070555 -0.0163510 -0.4501476 -0.5098625
3.141333	-35.5776825  0.9252236  0.3026333  0.3679518 -0.0787313 -0.0213906  0.2202148  0.1610518 -0.1651933 -0.1762475 -0.1209416  0.0453715 -0.1839936
3.146667	-37.0268517  0.0862079  0.7448028  0.2097520  0.2994024  0.5877852  0.0329452  0.2417884  0.1445754  0.4675707  0.2761342  0.3666453  0.0837340
3.152000	-37.0359993  0.6263775  0.6467658  0.1086986 -0.3334138  0.2469571  0.3098474  0.2616710  0.0392303  0.2574888  0.2419682  0.4750321  0.4030533
3.157333	-36.2783012 -0.2543293 -0.1621657  0.4916834 -0.2265002  0.5252475  0.1347237 -0.0162371 -0.2683594 -0.1434327  0.3915409  0.1855232  0.2194932
3.162667	-37.8778458 -0.2237774  0.3725937  0.2883022  0.1686860 -0.0806977  0.1678152  0.1068991  0.4334280  0.3744841  0.5405736  0.3705066 -0.0546565
3.168000	-37.3620644  0.4679867  0.5603613  1.3818704  0.5425951  0.3634715 -0.0057297  0.5740104  0.2549753 -0.0691599  0.1991206  0.1231778 -0.0208275
3.173333	-35.2824097  0.6791636  0.2693263  0.3013592  0.1319272  0.3825271  0.2241702 -0.2121657  0.1477745 -0.1494284  0.1417874  0.2178773 -0.1550750
3.178667	-36.3544693  0.5323919  0.6551601  0.4339420  0.2952496 -0.0222931 -0.1572065  0.4336413  0.4743946  0.0861421  0.4989684 -0.2901864 -0.0946193
3.184000	-39.2228661  0.0048373  0.5342056  0.2616912  1.0016500  0.7982625 -0.2858968  0.1460232  0.1189919 -0.3325083 -0.1785293  0.5263431  0.3628263
3.189333	-36.0113525  0.7372503  0.8742861  0.4553183  0.1682763  0.2690158  0.6825371  0.1873323 -0.3982430  0.1709797  0.2832899  0.4899940 -0.1957941
3.194667	-35.5827599  0.5858759  0.2053707  0.2183009  0.1244246  0.1994524  0.4427767 -0.1684147 -0.2595592  0.1183470 -0.0583350  0.3217934  0.3922111
3.200000	-39.0188408  0.9913528  0.5870997 -0.2271982  0.4980456 -0.0396060  0.1053977  0.0445617 -0.0921090 -0.0577626 -0.0323070 -0.2945365  0.2444706
3.205333	-36.1984558  0.7363682  0.3494094  0.0567586  0.1470972  0.3171970  0.1692305 -0.3657466  0.1217132  0.4029517  0.1794735  0.0665948  0.0042107
3.210667	-35.2869339  0.4035628  0.1434921  0.2520928  0.2643398 -0.2602908  0.0273499  0.5711925 -0.0230465  0.1019422  0.4057482 -0.2293762 -0.0064057
3.216000	-35.6658669  0.7178049  0.4988368  0.5020304  0.2536030  0.5537124  0.5136824  0.4729549  0.4801021  0.3508626 -0.0484622 -0.0829374  0.3836054
3.221333	-35.9211807  0.3394163  0.7600123  0.5941698  0.0425465  0.1411071 -0.0640707  0.0297384  0.1371882 -0.1863700  0.0274538  0.2554444  0.0226184
3.226667	-35.4475403  0.3403207 -0.0522788 -0.0120182 -0.0264541  0.0702982  0.2219911  0.0755548 -0.0544221  0.1322950 -0.1078379 -0.2098840 -0.1015860
3.232000	-35.5575867  1.2105511  0.5226928 -0.0942603  0.1277964  0.6092446  0.3802733  0.0177089  0.1075907  0.2450606  0.3317933  0.2411753  0.2231230
3.237333	-36.1913643 -0.2465664  0.5097269  0.8037286  0.4499681  0.0956634  0.0904913  0.0561704 -0.2162433  0.0251579  0.5854617  0.3607664  0.2908760
3.242667	-35.8858986  0.8060396  0.6060228  0.1466197 -0.3775035 -0.0970869  0.7846661  0.3005733  0.0456285  0.2981513  0.9127766  0.2065660 -0.2038221
3.248000	-36.9700356  0.4930607  0.6858339  0.7420813  0.6352010  0.4537145  0.5296516 -0.1853709  0.4198306  0.6823176  0.0256010  0.0300622  0.2066084
3.253333	-44.5834923  0.6015922  0.9482131  0.6327197  0.5241746  1.0290468 -0.1478262  0.5482323  0.3649030 -0.1705070  0.2309971 -0.1814231 -0.0529728
3.258667	-36.1532135  0.2183410  0.7339094  0.2583703  0.2881513  0.8611768  0.2773871  0.0427750 -0.0719019  0.1854396  0.6589406  0.4254435  0.3301301
3.264000	-36.7088737 -0.0115099  0.1567231  0.7457012  1.0290723 -0.1241060  0.3213959  0.3240874  1.0103505  0.7487110  0.4972954  0.5027978 -0.0090351
3.269333	-38.4540939 -0.3256880 -0.5220516 -0.0094166  0.2020618  0.5011599  0.6227756  0.6782974  0.4829435  0.4359349  0.1534381 -0.0377780  0.3220212
3.274667	-36.2003174  0.1554067  0.5694602  0.2165874  0.4368680  0.2712663  0.5193849  0.4295824  0.1547043  0.2586942 -0.1208254  0.4354627  0.2552414
3.280000	-35.5076408  0.2682778  0.3049320  0.3407549  0.4559899  0.2278966  0.0407352  0.1520208  0.1374369  0.1307117  0.2463679 -0.0663962  0.0143051
3.285333	-39.1126404 -0.6727313 -0.0706660  0.2927837 -0.1614650 -0.5231524 -0.4410806 -0.0567329  0.2454443  0.3105054  0.2863778  0.9647421  0.2789056
3.290667	-36.8498383  0.8947991  0.7977054  0.3881738  0.0631443 -0.1323636 -0.6278696  0.4410408  0.1553171 -0.2086271  0.0529364  0.1350622  0.3078352
3.296000	-37.0670433 -0.0345083  1.0948322  1.0015850  0.1787384 -0.0738057 -0.0530581  0.0324995  0.1379776 -0.0523435  0.0682107  0.5738631  0.1806140
3.301333	-40.0998039  0.2385651  0.1571551  0.5881524  0.1731389  0.4740352 -0.2197723 -0.1437577  0.2974992  0.5149616  0.0068961  0.2651505  0.0371319
3.306667	-39.0481682  0.0658305  0.2154536  0.5383856  0.2557347 -0.1360444 -0.5667577 -0.0623152  0.4621463  0.2784865  0.0013628  0.1065762  0.0242238
3.312000	-37.8565559  0.2483584  0.0828997  0.0952743  0.3269944 -0.0870796 -0.2459579 -0.2741756  0.0169549  0.3464619  0.1466292  0.5938010  0.5585625
3.317333	-37.2771034  0.5355768  0.6230142 -0.6805909 -0.1173776  0.6735529  0.5115938  0.5755422  0.3445818  0.2513541  0.4142841  0.2589586 -0.1729029
3.322667	-42.0860367  1.1406363  0.5659448 -0.3865985  0.2314682  0.3837369  0.0682626  0.0570154 -0.1866109  0.2944152  0.2060374 -0.1212702  0.0095313
3.328000	-38.8640289  0.1216161  0.2925365  0.4970521  0.1614910 -0.1256169  0.0922008 -0.2288215 -0.2226148 -0.0661218 -0.1920947 -0.1021664 -0.0147152
3.333333	-37.0896950  0.6641831  0.1812779  0.5652624  0.3421911 -0.2273864 -0.3298416 -0.1538959  0.3058398  0.1337088  0.4936409  0.1612791  0.1181519
